{
    "stages": {
        "stage": {
            "name": "stage",
            "protocol": "sftp",
            "host": "superkoderi5.cz-hosting.com",
            "user": "u13835",
            "remoteRoot": "/chroot/u13835/srv/app",
            "port": "22",
            "keyLocation": "$HOME/.ssh/id_rsa"
        },"prod": {
            "name": "production",
            "protocol": "sftp",
            "host": "superkoderi5.cz-hosting.com",
            "user": "u13417",
            "remoteRoot": "/chroot/u13417/srv/app",
            "port": "22",
            "keyLocation": "$HOME/.ssh/id_rsa"
        }
    },
    "tasks": [
        {
            "type": "runCmd",
            "subType": "gulpmin",
            "cmd": "gulp min"
        },
        {
            "type": "copyToRemote",
            "subType": "vendor",
            "source": "vendor",
            "target": "vendor"
        },
        {
            "type": "copyToRemote",
            "subType": "gulpmin",
            "source": "www/static",
            "target": "www/static"
        }
    ]
}