<?xml version="1.0" encoding="utf-8"?>
<!-- Generator: Adobe Illustrator 23.0.0, SVG Export Plug-In . SVG Version: 6.00 Build 0)  -->
<svg version="1.1" id="Vrstva_1" xmlns="http://www.w3.org/2000/svg" xmlns:xlink="http://www.w3.org/1999/xlink" x="0px" y="0px"
	 viewBox="0 0 20 20" style="enable-background:new 0 0 20 20;" xml:space="preserve">
<path d="M19.5,4.7c-0.7-0.7-1.7-0.7-2.4,0L10,11.8L2.8,4.7C2.2,4,1.1,4,0.5,4.7s-0.7,1.7,0,2.4l8.3,8.3
	c0.3,0.3,0.8,0.5,1.2,0.5s0.9-0.2,1.2-0.5L19.5,7C20.2,6.4,20.2,5.3,19.5,4.7z"/>
</svg>
