<?xml version="1.0" encoding="utf-8"?>
<!-- Generator: Adobe Illustrator 23.0.0, SVG Export Plug-In . SVG Version: 6.00 Build 0)  -->
<svg version="1.1" id="Vrstva_1" xmlns="http://www.w3.org/2000/svg" xmlns:xlink="http://www.w3.org/1999/xlink" x="0px" y="0px"
	 viewBox="0 0 27 27" style="enable-background:new 0 0 27 27;" xml:space="preserve">
<path d="M20.5,12.4L8.7,0.6c-0.6-0.6-1.6-0.6-2.2,0s-0.6,1.6,0,2.2l10.7,10.7L6.5,24.2c-0.6,0.6-0.6,1.6,0,2.2
	c0.3,0.3,0.7,0.5,1.1,0.5s0.8-0.2,1.1-0.5l11.8-11.8C21.2,14,21.2,13,20.5,12.4z"/>
</svg>
