<?xml version="1.0" encoding="utf-8"?>
<!-- Generator: Adobe Illustrator 23.0.2, SVG Export Plug-In . SVG Version: 6.00 Build 0)  -->
<svg version="1.1" id="Vrstva_1" xmlns="http://www.w3.org/2000/svg" xmlns:xlink="http://www.w3.org/1999/xlink" x="0px" y="0px"
	 viewBox="0 0 30 26" style="enable-background:new 0 0 30 26;" xml:space="preserve">
<path d="M7.5,26h15L30,13L22.5,0h-15L0,13L7.5,26z M11.9,12.1l3.5-3.5c0.2-0.2,0.5-0.3,0.7-0.3s0.5,0.1,0.7,0.3c0.4,0.4,0.4,1,0,1.4
	L14,12.8l2.8,2.8c0.4,0.4,0.4,1,0,1.4s-1,0.4-1.4,0l-3.5-3.5c-0.2-0.2-0.3-0.5-0.3-0.7C11.6,12.5,11.7,12.3,11.9,12.1z"/>
</svg>
