<?xml version="1.0" encoding="utf-8"?>
<!-- Generator: Adobe Illustrator 23.0.0, SVG Export Plug-In . SVG Version: 6.00 Build 0)  -->
<svg version="1.1" id="Vrstva_1" xmlns="http://www.w3.org/2000/svg" xmlns:xlink="http://www.w3.org/1999/xlink" x="0px" y="0px"
	 viewBox="0 0 85.04 85.04" style="enable-background:new 0 0 85.04 85.04;" xml:space="preserve">
<path fill="none" d="M49.56,37.78l10.65,16c2.57-3.1,4.1-6.9,4.1-11.01c0-1.73-0.3-3.39-0.8-4.98H49.56z"/>
<polygon fill="none" points="36.11,42.66 39.52,47.8 45.23,47.8 48.88,42.84 45.5,37.78 39.72,37.78 "/>
<path fill="none" d="M57.61,55.9l-6.75-10.1l-3.03,4.11c-0.07,0.14-0.16,0.26-0.28,0.38l-8.23,11.15c1.05,0.13,2.11,0.23,3.2,0.23
	c5.98,0,11.4-2.09,15.33-5.48C57.76,56.1,57.68,56.01,57.61,55.9z"/>
<path fill="none" d="M36.04,60.29c0.01-0.02,0.02-0.03,0.04-0.05l6.95-9.45H22.82c2.55,4.7,7.25,8.35,13.02,9.97
	C35.88,60.59,35.93,60.43,36.04,60.29z"/>
<path fill="none" d="M35.52,47.8L24.85,31.74c-2.58,3.11-4.12,6.91-4.12,11.03c0,1.74,0.29,3.43,0.8,5.03H35.52z"/>
<path fill="none" d="M48.97,25.3l-7,9.45h20.24c-2.55-4.7-7.25-8.34-13.01-9.96C49.15,24.97,49.08,25.14,48.97,25.3z"/>
<path fill="none" d="M27.18,29.35c0.08,0.07,0.17,0.13,0.23,0.22c0.01,0.01,0.01,0.01,0.02,0.02l6.73,10.13L45.69,24.1
	c-1.04-0.13-2.09-0.23-3.17-0.23v0C36.54,23.87,31.12,25.96,27.18,29.35z"/>
<path d="M15.54,15.54c-0.03-0.81-0.81-1.45-1.75-1.43H6.75C3.02,14.11,0,16.73,0,19.97v5.03c0,0.84,0.78,1.52,1.75,1.52
	s1.75-0.68,1.75-1.52v-5.03c0-1.56,1.45-2.82,3.25-2.82h7.05c0.97,0,1.75-0.68,1.75-1.52C15.54,15.6,15.54,15.57,15.54,15.54z"/>
<path d="M85.04,19.97c0-3.23-3.02-5.85-6.75-5.85H71.2c-0.97,0-1.75,0.68-1.75,1.52c0,0.84,0.78,1.52,1.75,1.52h7.09
	c1.78,0.02,3.22,1.27,3.25,2.82v5.03c0,0.84,0.78,1.52,1.75,1.52c0.97,0,1.75-0.68,1.75-1.52V19.97z"/>
<path d="M3.5,60.46C3.47,59.64,2.69,59,1.75,59.03C0.78,59.03,0,59.71,0,60.54v5.03c0.03,3.22,3.03,5.83,6.75,5.85h7.05
	c0.97,0,1.75-0.68,1.75-1.52c0-0.03,0-0.06,0-0.09c-0.03-0.81-0.81-1.45-1.75-1.43H6.75c-1.79,0-3.25-1.26-3.25-2.82v-5.03
	C3.5,60.51,3.5,60.48,3.5,60.46z"/>
<path d="M83.29,59.03c-0.03,0-0.07,0-0.1,0c-0.94,0.02-1.68,0.7-1.65,1.52v5.03c-0.03,1.55-1.47,2.79-3.25,2.82H71.2
	c-0.97,0-1.75,0.68-1.75,1.52c0,0.84,0.78,1.52,1.75,1.52h7.09c3.71-0.02,6.72-2.63,6.75-5.85v-5.03
	C85.04,59.71,84.26,59.03,83.29,59.03z"/>
<path d="M17.24,42.72c0,12.11,11.32,21.94,25.28,21.94c13.85,0,25.12-9.66,25.28-21.68c0-0.09,0-0.17,0-0.26
	c0-12.11-11.32-21.94-25.28-21.94C28.56,20.79,17.24,30.61,17.24,42.72z M45.69,24.1L34.16,39.72l-6.73-10.13
	c-0.01-0.01-0.01-0.01-0.02-0.02c-0.06-0.09-0.15-0.15-0.23-0.22c3.94-3.39,9.35-5.48,15.34-5.48v0
	C43.6,23.87,44.65,23.96,45.69,24.1z M45.5,37.78l3.38,5.06l-3.65,4.96h-5.71l-3.41-5.14l3.61-4.88H45.5z M24.85,31.74L35.52,47.8
	H21.54c-0.51-1.6-0.8-3.29-0.8-5.03C20.74,38.65,22.27,34.85,24.85,31.74z M22.82,50.79h20.21l-6.95,9.45
	c-0.01,0.02-0.03,0.03-0.04,0.05c-0.11,0.15-0.16,0.31-0.2,0.47C30.07,59.14,25.36,55.49,22.82,50.79z M39.32,61.44l8.23-11.15
	c0.12-0.11,0.21-0.24,0.28-0.38l3.03-4.11l6.75,10.1c0.07,0.11,0.15,0.2,0.24,0.29c-3.94,3.39-9.35,5.48-15.33,5.48
	C41.43,61.67,40.37,61.58,39.32,61.44z M60.2,53.78l-10.65-16H63.5c0.5,1.59,0.8,3.26,0.8,4.98C64.3,46.88,62.77,50.68,60.2,53.78z
	 M62.21,34.75H41.97l7-9.45c0.12-0.16,0.18-0.33,0.23-0.51C54.96,26.41,59.65,30.05,62.21,34.75z"/>
</svg>
