<?xml version="1.0" encoding="utf-8"?>
<!-- Generator: Adobe Illustrator 21.1.0, SVG Export Plug-In . SVG Version: 6.00 Build 0)  -->
<svg version="1.1" id="Vrstva_1" xmlns="http://www.w3.org/2000/svg" xmlns:xlink="http://www.w3.org/1999/xlink" x="0px" y="0px"
	 width="14px" height="14px" viewBox="0 0 14 14" style="enable-background:new 0 0 14 14;" xml:space="preserve">
<g transform="translate(-559.000000, -757.000000)">
	<polygon points="566,771 559,764 566,757 567.2,758.2 562.3,763.1 573,763.1 573,764.9 562.3,764.9 567.2,769.8 	"/>
</g>
</svg>
