<?xml version="1.0" encoding="utf-8"?>
<!-- Generator: Adobe Illustrator 21.1.0, SVG Export Plug-In . SVG Version: 6.00 Build 0)  -->
<svg version="1.1" id="Vrstva_1" xmlns="http://www.w3.org/2000/svg" xmlns:xlink="http://www.w3.org/1999/xlink" x="0px" y="0px"
	 viewBox="0 0 14 14" enable-background="new 0 0 14 14" xml:space="preserve">
<g transform="translate(-559.000000, -757.000000)">
	<polygon points="559,764 566,757 573,764 571.8,765.2 566.9,760.3 566.9,771 565.1,771 565.1,760.3 560.2,765.2 	"/>
</g>
</svg>
