<?xml version="1.0" encoding="utf-8"?>
<!-- Generator: Adobe Illustrator 23.0.0, SVG Export Plug-In . SVG Version: 6.00 Build 0)  -->
<svg version="1.1" id="Vrstva_1" xmlns="http://www.w3.org/2000/svg" xmlns:xlink="http://www.w3.org/1999/xlink" x="0px" y="0px"
	 viewBox="0 0 85.04 85.04" style="enable-background:new 0 0 85.04 85.04;" xml:space="preserve">
<g>
	<path fill="none" d="M38.24,53.87c0-7.8,4.04-14.66,10.14-18.61H6.65v42.95c0,1.82,1.48,3.3,3.3,3.3h45.38c1.82,0,3.3-1.48,3.3-3.3
		v-2.26C47.22,75.05,38.24,65.51,38.24,53.87z M16.33,43.63c0,0,0.01,0,0.01,0h13.13c0.98,0,1.77,0.8,1.77,1.78
		c0,0.98-0.79,1.77-1.77,1.77H16.34c-0.98,0-1.78-0.79-1.78-1.77C14.55,44.43,15.35,43.63,16.33,43.63z M31.24,70.1
		c0,0.98-0.79,1.77-1.77,1.77h0H16.34c-0.95,0.03-1.75-0.72-1.77-1.67c0-0.03,0-0.07,0-0.1c0-0.98,0.79-1.77,1.77-1.77h0h13.13
		C30.45,68.32,31.24,69.12,31.24,70.1L31.24,70.1z M31.24,57.78c0,0.98-0.79,1.77-1.77,1.77h0H16.34c-0.98,0-1.77-0.79-1.77-1.77v0
		c-0.03-0.95,0.72-1.75,1.67-1.77c0.03,0,0.07,0,0.1,0h13.13C30.45,56,31.24,56.8,31.24,57.78L31.24,57.78z"/>
	<path fill="none" d="M58.63,31.71V18.02c0-1.82-1.48-3.3-3.3-3.3H9.95c-1.82,0-3.3,1.48-3.3,3.3v13.69H58.63z"/>
	<path fill="none" d="M44.18,6.91c0-1.82-1.48-3.3-3.3-3.3H24.4c-1.82,0-3.3,1.48-3.3,3.3l0,4.26h23.07V6.91z"/>
	<path fill="none" d="M60.5,35.31c-0.03,0-0.07,0-0.1,0v0.15c-10.28,0-18.61,8.33-18.61,18.61c0,10.28,8.33,18.61,18.61,18.61
		c10.28,0,18.61-8.33,18.61-18.61c0-0.02,0-0.03,0-0.05C79.07,43.75,70.78,35.37,60.5,35.31z M71.81,53.87
		c0,0.98-0.79,1.77-1.77,1.77h0H60.4l0,0h0c-0.98,0-1.77-0.79-1.77-1.77v0V41.09c0-0.98,0.8-1.77,1.78-1.77
		c0.98,0,1.77,0.79,1.77,1.77v11h7.86C71.02,52.1,71.81,52.89,71.81,53.87L71.81,53.87z"/>
	<path d="M16.34,47.18h13.13c0.98,0,1.77-0.79,1.77-1.77c0-0.98-0.79-1.78-1.77-1.78H16.34c0,0-0.01,0-0.01,0
		c-0.98,0-1.77,0.8-1.77,1.78C14.56,46.39,15.36,47.18,16.34,47.18z"/>
	<path d="M29.47,56H16.34c-0.03,0-0.07,0-0.1,0c-0.95,0.03-1.7,0.82-1.67,1.77v0c0,0.98,0.79,1.77,1.77,1.77h13.13h0
		c0.98,0,1.77-0.79,1.77-1.77v0C31.24,56.8,30.45,56,29.47,56z"/>
	<path d="M29.47,68.32H16.34h0c-0.98,0-1.77,0.79-1.77,1.77c0,0.03,0,0.07,0,0.1c0.03,0.95,0.82,1.7,1.77,1.67h13.13h0
		c0.98,0,1.77-0.79,1.77-1.77v0C31.24,69.12,30.45,68.32,29.47,68.32z"/>
	<path d="M62.18,31.79V18.02v0c0-3.78-3.06-6.85-6.85-6.85h-7.51l0.11-4.26c0-3.79-3.06-6.87-6.85-6.9H24.4
		c-0.02,0-0.03,0-0.05,0c-3.78,0.03-6.82,3.12-6.79,6.9v4.26H9.95h0c-3.78,0-6.85,3.06-6.85,6.85v60.19v0
		c0,3.78,3.06,6.85,6.85,6.85h45.38c3.78,0,6.85-3.06,6.85-6.85v-2.26c11.41-0.91,20.39-10.44,20.39-22.08c0,0,0,0,0,0
		C82.56,42.23,73.59,32.69,62.18,31.79z M21.1,6.91c0-1.82,1.48-3.3,3.3-3.3h16.48c1.82,0,3.3,1.48,3.3,3.3v4.26H21.1L21.1,6.91z
		 M9.95,14.72h45.38c1.82,0,3.3,1.48,3.3,3.3v13.69H6.65V18.02C6.65,16.2,8.13,14.72,9.95,14.72z M55.33,81.51H9.95
		c-1.82,0-3.3-1.48-3.3-3.3V35.26h41.73c-6.1,3.95-10.14,10.81-10.14,18.61c0,11.64,8.98,21.18,20.39,22.08v2.26
		C58.63,80.03,57.15,81.51,55.33,81.51z M60.4,72.68c-10.28,0-18.61-8.33-18.61-18.61c0-10.28,8.33-18.61,18.61-18.61v-0.15
		c0.03,0,0.07,0,0.1,0c10.28,0.06,18.56,8.43,18.51,18.71c0,0.02,0,0.03,0,0.05C79.01,64.35,70.68,72.68,60.4,72.68z"/>
	<path d="M70.04,52.1h-7.86v-11c0-0.98-0.79-1.77-1.77-1.77c-0.98,0-1.78,0.79-1.78,1.77v12.78v0
		c0,0.98,0.79,1.77,1.77,1.77h0l0,0h9.63h0c0.98,0,1.77-0.79,1.77-1.77v0C71.81,52.89,71.02,52.1,70.04,52.1z"/>
</g>
</svg>
