<?xml version="1.0" encoding="utf-8"?>
<!-- Generator: Adobe Illustrator 23.0.0, SVG Export Plug-In . SVG Version: 6.00 Build 0)  -->
<svg version="1.1" id="calendar" xmlns="http://www.w3.org/2000/svg" xmlns:xlink="http://www.w3.org/1999/xlink" x="0px" y="0px"
	 viewBox="0 0 30 30" style="enable-background:new 0 0 30 30;" xml:space="preserve">
<g>
	<path fill="none" d="M26.5,4.7h-1.4V7h-2.3V4.7H7.3V7H4.9V4.7H3.5c-0.6,0-1.2,0.5-1.2,1.2v2.8h25.3l0-2.8
		C27.7,5.2,27.1,4.7,26.5,4.7z"/>
	<path fill="none" d="M2.3,26.5c0,0.6,0.5,1.2,1.2,1.2h23c0.6,0,1.2-0.5,1.2-1.2V11H2.3V26.5z M23.2,13.5h2.3v2.3h-2.3V13.5z
		 M23.2,18.2h2.3v2.3h-2.3V18.2z M18.5,13.5h2.3v2.3h-2.3V13.5z M18.5,18.2h2.3v2.3h-2.3V18.2z M18.5,22.9h2.3v2.3h-2.3V22.9z
		 M13.8,13.5h2.3v2.3h-2.3V13.5z M13.8,18.2h2.3v2.3h-2.3V18.2z M13.8,22.9h2.3v2.3h-2.3V22.9z M9.1,13.5h2.3v2.3H9.1V13.5z
		 M9.1,18.2h2.3v2.3H9.1V18.2z M9.1,22.9h2.3v2.3H9.1V22.9z M4.5,13.5h2.3v2.3H4.5V13.5z M4.5,18.2h2.3v2.3H4.5V18.2z M4.5,22.9h2.3
		v2.3H4.5V22.9z"/>
	<path d="M26.5,2.3h-1.4V0h-2.3v2.3H7.3V0H4.9v2.3H3.5C1.6,2.3,0,3.9,0,5.9v20.6C0,28.4,1.6,30,3.5,30h23
		c1.9,0,3.5-1.6,3.5-3.5V5.9C30,3.9,28.4,2.3,26.5,2.3z M27.7,26.5c0,0.6-0.5,1.2-1.2,1.2h-23c-0.6,0-1.2-0.5-1.2-1.2V11h25.3V26.5z
		 M2.3,8.7V5.9c0-0.6,0.5-1.2,1.2-1.2h1.4V7h2.3V4.7h15.5V7h2.3V4.7h1.4c0.6,0,1.2,0.5,1.2,1.2l0,2.8H2.3z"/>
	<rect x="4.5" y="13.5" width="2.3" height="2.3"/>
	<rect x="9.1" y="13.5" width="2.3" height="2.3"/>
	<rect x="13.8" y="13.5" width="2.3" height="2.3"/>
	<rect x="18.5" y="13.5" width="2.3" height="2.3"/>
	<rect x="23.2" y="13.5" width="2.3" height="2.3"/>
	<rect x="4.5" y="18.2" width="2.3" height="2.3"/>
	<rect x="9.1" y="18.2" width="2.3" height="2.3"/>
	<rect x="13.8" y="18.2" width="2.3" height="2.3"/>
	<rect x="18.5" y="18.2" width="2.3" height="2.3"/>
	<rect x="4.5" y="22.9" width="2.3" height="2.3"/>
	<rect x="9.1" y="22.9" width="2.3" height="2.3"/>
	<rect x="13.8" y="22.9" width="2.3" height="2.3"/>
	<rect x="18.5" y="22.9" width="2.3" height="2.3"/>
	<rect x="23.2" y="18.2" width="2.3" height="2.3"/>
</g>
</svg>
