<?xml version="1.0" encoding="utf-8"?>
<!-- Generator: Adobe Illustrator 23.0.0, SVG Export Plug-In . SVG Version: 6.00 Build 0)  -->
<svg version="1.1" id="Group_692" xmlns="http://www.w3.org/2000/svg" xmlns:xlink="http://www.w3.org/1999/xlink" x="0px" y="0px"
	 viewBox="0 0 50 50" style="enable-background:new 0 0 50 50;" xml:space="preserve">
<g>
	<path fill="none" d="M19.2,27.5c0.3,0.9,1.1,1.5,2.1,1.5h7.4c0.9,0,1.8-0.6,2.1-1.5l0.5-1.5H18.7L19.2,27.5z"/>
	<path fill="none" d="M11.4,22.4c0-0.4-0.3-0.8-0.8-0.8c-0.4,0-0.8,0.3-0.8,0.8l0,0L11.4,22.4L11.4,22.4z"/>
	<path fill="none" d="M9.1,24.6c0,0.8,0.7,1.5,1.5,1.5v0c0.8,0,1.5-0.7,1.5-1.5v-0.8h-3V24.6z"/>
	<path fill="none" d="M37.9,24.6c0,0.8,0.7,1.4,1.5,1.5c0.8,0,1.5-0.6,1.5-1.5v-0.8h-3V24.6z"/>
	<path fill="none" d="M40.2,22.5L40.2,22.5c0-0.5-0.3-0.8-0.8-0.8s-0.8,0.3-0.8,0.8l0,0H40.2z"/>
	<path d="M47.3,22.5L47.3,22.5h-5.8v0c0-1.2-0.9-2.1-2.1-2.1s-2.1,0.9-2.1,2.1v0h-5.8c-0.4,0-0.7,0.3-0.7,0.7
		c0,0.4,0.3,0.7,0.7,0.7h5.1v0.8c0,0,0,0,0,0H13.4c0,0,0,0,0,0v-0.8h5.1c0.4,0,0.7-0.3,0.7-0.7c0-0.4-0.3-0.7-0.7-0.7h-5.8v0
		c0-1.2-0.9-2.1-2.1-2.1s-2.1,0.9-2.1,2.1v0H2.7c-0.4,0-0.7,0.3-0.7,0.7c0,0.4,0.3,0.7,0.7,0.7h5.1v0.8c0,1.6,1.3,2.8,2.8,2.8
		c1,0,2-0.6,2.5-1.4h4.2l0.6,1.9c0.5,1.5,1.8,2.4,3.4,2.4h7.4c1.5,0,2.9-1,3.4-2.4l0.6-1.9h4.2c0.8,1.4,2.5,1.8,3.9,1.1
		c0.9-0.5,1.4-1.4,1.4-2.5v-0.8h5.1c0.4,0,0.7-0.3,0.7-0.7C48,22.8,47.7,22.5,47.3,22.5z M9.8,22.4c0-0.4,0.3-0.8,0.8-0.8
		c0.4,0,0.8,0.3,0.8,0.8v0L9.8,22.4L9.8,22.4z M12.1,24.6c0,0.8-0.7,1.5-1.5,1.5v0c-0.8,0-1.5-0.7-1.5-1.5v-0.8h3V24.6z M30.8,27.5
		c-0.3,0.9-1.1,1.5-2.1,1.5h-7.4c-0.9,0-1.8-0.6-2.1-1.5L18.7,26h12.5L30.8,27.5z M39.4,21.7c0.4,0,0.8,0.3,0.8,0.8v0h-1.5l0,0
		C38.6,22,39,21.7,39.4,21.7z M40.9,24.6c0,0.8-0.7,1.5-1.5,1.5c-0.8,0-1.4-0.7-1.5-1.5v-0.8h3V24.6z"/>
	<path d="M10.4,13.1C10.4,13.1,10.4,13.1,10.4,13.1c0.4,0.1,0.8-0.2,0.9-0.6c0.9-5.2,5-9.3,10.3-10.1
		c6.3-1,12.2,2.9,13.9,8.9l-3.8-1.9c-0.4-0.2-0.9,0-1.1,0.3c-0.2,0.4-0.1,0.9,0.3,1.1l5.2,2.7c0.1,0,0.1,0.1,0.2,0.1
		c0.3,0.1,0.6-0.1,0.8-0.4l3-4.8c0.2-0.4,0.1-0.8-0.3-1.1C39.5,7,39,7.1,38.8,7.5l-1.9,3.1c-1.5-5-5.7-8.8-10.9-9.7
		C18.3-0.5,11.1,4.6,9.7,12.2c0,0,0,0,0,0C9.7,12.6,9.9,13.1,10.4,13.1z"/>
	<path d="M37.4,37c-0.4-0.1-0.8,0.2-0.9,0.7C35.4,44.4,29.1,49,22.3,48c-4.7-0.8-8.6-4.2-9.9-8.7l3.8,1.9
		c0.4,0.2,0.8,0,1-0.4c0.2-0.4,0.1-0.9-0.3-1.1l-5.2-2.6c-0.4-0.2-0.8-0.1-1,0.3l-2.9,4.9c0,0,0,0,0,0c-0.2,0.4-0.1,0.9,0.3,1.1
		c0.1,0.1,0.2,0.1,0.3,0.1c0.3,0.1,0.6-0.1,0.8-0.4l1.8-3.1c1.6,5,5.9,8.7,11.1,9.5c7.6,1.2,14.8-4,16-11.6c0,0,0,0,0,0
		C38.1,37.5,37.8,37.1,37.4,37z"/>
</g>
</svg>
