<?xml version="1.0" encoding="utf-8"?>
<!-- Generator: Adobe Illustrator 22.1.0, SVG Export Plug-In . SVG Version: 6.00 Build 0)  -->
<svg version="1.1" id="clock-circular-outline" xmlns="http://www.w3.org/2000/svg" xmlns:xlink="http://www.w3.org/1999/xlink"
	 x="0px" y="0px" viewBox="0 0 30 30" style="enable-background:new 0 0 30 30;" xml:space="preserve">
<g>
	<path fill="none" d="M15,3.2C8.5,3.2,3.2,8.5,3.2,15c0,6.5,5.3,11.8,11.8,11.8c6.5,0,11.8-5.3,11.8-11.8C26.8,8.5,21.5,3.2,15,3.2z
		 M22.8,17h-8c-0.7,0-1.2-0.6-1.2-1.2V6.4c0-0.7,0.6-1.2,1.2-1.2c0.7,0,1.2,0.6,1.2,1.2v8.1h6.7v0c0.7,0,1.2,0.6,1.2,1.2
		C24.1,16.5,23.5,17,22.8,17z"/>
	<path d="M15,0C6.7,0,0,6.7,0,15c0,8.3,6.7,15,15,15c8.3,0,15-6.7,15-15C30,6.7,23.3,0,15,0z M15,26.8
		C8.5,26.8,3.2,21.5,3.2,15C3.2,8.5,8.5,3.2,15,3.2c6.5,0,11.8,5.3,11.8,11.8C26.8,21.5,21.5,26.8,15,26.8z"/>
	<path d="M22.8,14.5L22.8,14.5l-6.7,0V6.4c0-0.7-0.6-1.2-1.2-1.2c-0.7,0-1.2,0.6-1.2,1.2v9.3c0,0.7,0.6,1.2,1.2,1.2h8
		c0.7,0,1.2-0.6,1.2-1.2C24.1,15.1,23.5,14.5,22.8,14.5z"/>
</g>
</svg>
