<?xml version="1.0" encoding="utf-8"?>
<!-- Generator: Adobe Illustrator 23.0.0, SVG Export Plug-In . SVG Version: 6.00 Build 0)  -->
<svg version="1.1" id="Vrstva_1" xmlns="http://www.w3.org/2000/svg" xmlns:xlink="http://www.w3.org/1999/xlink" x="0px" y="0px"
	 viewBox="0 0 30 30" style="enable-background:new 0 0 30 30;" xml:space="preserve">
<g>
	<path d="M22.5,2h-15L0,15l7.5,13h15L30,15L22.5,2z M19.5,18.1c0.2,0.2,0.3,0.5,0.3,0.7s-0.1,0.5-0.3,0.7
		c-0.2,0.2-0.5,0.3-0.7,0.3c-0.3,0-0.5-0.1-0.7-0.3l-3.2-3.2l-3.2,3.2c-0.4,0.4-1,0.4-1.4,0c-0.2-0.2-0.3-0.5-0.3-0.7
		s0.1-0.5,0.3-0.7l3.2-3.2l-3.2-3.2C10.1,11.6,10,11.3,10,11s0.1-0.5,0.3-0.7c0.4-0.4,1-0.4,1.4,0l3.2,3.2l3.2-3.2
		c0.4-0.4,1-0.4,1.4,0c0.2,0.2,0.3,0.5,0.3,0.7s-0.1,0.5-0.3,0.7l-3.2,3.2L19.5,18.1z"/>
	<path d="M19.8,11c0-0.3-0.1-0.5-0.3-0.7c-0.4-0.4-1-0.4-1.4,0l-3.2,3.2l-3.2-3.2c-0.4-0.4-1-0.4-1.4,0
		C10.1,10.5,10,10.8,10,11s0.1,0.5,0.3,0.7l3.2,3.2l-3.2,3.2c-0.2,0.2-0.3,0.5-0.3,0.7s0.1,0.5,0.3,0.7c0.4,0.4,1,0.4,1.4,0l3.2-3.2
		l3.2,3.2c0.2,0.2,0.5,0.3,0.7,0.3c0.3,0,0.5-0.1,0.7-0.3c0.2-0.2,0.3-0.5,0.3-0.7s-0.1-0.5-0.3-0.7l-3.2-3.2l3.2-3.2
		C19.7,11.6,19.8,11.3,19.8,11z"/>
</g>
</svg>
