<?xml version="1.0" encoding="utf-8"?>
<!-- Generator: Adobe Illustrator 23.0.0, SVG Export Plug-In . SVG Version: 6.00 Build 0)  -->
<svg version="1.1" id="Vrstva_1" xmlns="http://www.w3.org/2000/svg" xmlns:xlink="http://www.w3.org/1999/xlink" x="0px" y="0px"
	 viewBox="0 0 85.04 85.04" style="enable-background:new 0 0 85.04 85.04;" xml:space="preserve">
<path fill="none" d="M66.45,43.1c0,1.22,1.14,2.21,2.55,2.21c1.41,0,2.55-0.99,2.55-2.21v-1.77c0-0.11,0.04-0.21,0.07-0.31h-5.24
	c0.03,0.1,0.07,0.2,0.07,0.31V43.1z"/>
<path fill="none" d="M13.53,41.33v1.77c-0.17,1.21,0.82,2.32,2.21,2.47c1.4,0.15,2.67-0.71,2.84-1.92c0.03-0.18,0.03-0.37,0-0.55
	v-1.77c0-0.11,0.04-0.21,0.07-0.31h-5.2C13.49,41.13,13.53,41.22,13.53,41.33z"/>
<path fill="none" d="M17.25,37.86c0-0.56-0.53-1.02-1.18-1.02c-0.01,0-0.03,0-0.04,0c-0.64,0.02-1.16,0.46-1.18,1.02v0.78h2.39
	V37.86z"/>
<path fill="none" d="M70.22,37.86c-0.02-0.56-0.54-1-1.18-1.02c-0.65,0-1.18,0.46-1.18,1.02v0.78h2.35V37.86z"/>
<path fill="none" d="M33.21,48.14c0.39,1,1.53,1.64,2.74,1.53h13.13c1.22,0.1,2.36-0.53,2.78-1.53c0.34-0.79,1.13-2.81,1.54-3.88
	H31.63C32.05,45.31,32.84,47.3,33.21,48.14z"/>
<path d="M69.32,31.13c0.73,0,1.33-0.49,1.37-1.12v-9.67c0.02-0.33-0.1-0.66-0.39-0.91c-0.29-0.25-0.67-0.36-1.05-0.34
	H58.18c-0.76,0-1.37,0.53-1.37,1.19c0,0.66,0.61,1.19,1.37,1.19h7.81l-8.09,7.04c-0.01,0.01-0.02,0.02-0.04,0.03
	c-0.51,0.46-0.49,1.19,0.04,1.64c0.26,0.22,0.61,0.34,0.98,0.34c0.36,0.01,0.7-0.11,0.94-0.34l8.12-7.01v6.78
	C67.94,30.59,68.56,31.13,69.32,31.13z"/>
<path d="M16.19,55.38c-0.76,0-1.37,0.53-1.37,1.19v9.66c0,0.66,0.61,1.19,1.37,1.19c0,0,0,0,0,0l0,0h0h11.13
	c0,0,0,0,0,0c0.76,0,1.37-0.53,1.37-1.19c0-0.66-0.61-1.19-1.37-1.19h-7.84L27.6,58c0.37-0.42,0.37-1.01,0-1.43
	c-0.45-0.53-1.31-0.63-1.92-0.24l-8.12,7.04v-6.8C17.56,55.91,16.95,55.38,16.19,55.38z"/>
<path d="M28.19,20.27c0-0.66-0.61-1.19-1.37-1.19H15.75c-0.38-0.02-0.76,0.09-1.05,0.34c-0.29,0.25-0.41,0.58-0.39,0.91
	v9.6c0,0.66,0.61,1.19,1.37,1.19c0.73,0,1.33-0.49,1.37-1.12v-6.84l8.12,7.02c0.26,0.22,0.61,0.34,0.98,0.34v0
	c0.33-0.01,0.65-0.13,0.89-0.32c0.55-0.45,0.58-1.21,0.06-1.68l-8.09-7.04h7.81C27.58,21.47,28.19,20.93,28.19,20.27z"/>
<path d="M56.3,66.23c0,0.66,0.61,1.19,1.37,1.19h11.13c0.76,0,1.37-0.53,1.37-1.19v-9.66c0-0.66-0.61-1.19-1.37-1.19
	s-1.37,0.53-1.37,1.19v6.78l-8.12-7.02c-0.49-0.32-1.16-0.32-1.65,0c-0.61,0.39-0.73,1.14-0.27,1.67l8.12,7.04h-7.84
	C56.91,65.04,56.3,65.58,56.3,66.23z"/>
<path d="M10.85,41.03c-0.03,0.1-0.07,0.2-0.07,0.31v1.77c0,0.01,0,0.02,0,0.03c0,2.52,2.35,4.56,5.25,4.56
	c0.03,0,0.05,0,0.08,0c2.44-0.02,4.46-1.48,5.03-3.44h7.87l-0.23,0.07c0,0,1.37,3.57,1.88,4.69c0.83,1.86,2.91,3.07,5.21,3.03H47.2
	h1.96c2.31,0.06,4.42-1.15,5.25-3.03c0.51-1.29,1.84-4.69,1.84-4.69l-0.23-0.07h7.87c0.59,1.97,2.64,3.44,5.1,3.44
	c2.92,0,5.29-2.06,5.29-4.59v-1.77c0-0.11-0.04-0.21-0.07-0.31h9.44c0.76,0,1.37-0.53,1.37-1.19c0-0.02,0-0.05,0-0.07
	c-0.02-0.64-0.64-1.14-1.37-1.12h-10.7v-0.78c0-1.88-1.76-3.4-3.92-3.4s-3.92,1.52-3.92,3.4v0.78H54.34c-0.03,0-0.05,0-0.08,0
	c-0.74,0.02-1.31,0.55-1.29,1.19c0,0.66,0.61,1.19,1.37,1.19h9.44c-0.03,0.1-0.07,0.2-0.07,0.31v0.54H21.33v-0.54
	c0-0.11-0.04-0.21-0.07-0.31h9.48c0.76,0,1.37-0.53,1.37-1.19c0-0.66-0.61-1.19-1.37-1.19H19.96v-0.78c0-1.88-1.76-3.4-3.92-3.4
	c-2.17,0-3.92,1.52-3.92,3.4v0.78H1.37C0.61,38.64,0,39.18,0,39.84c0,0.66,0.61,1.19,1.37,1.19H10.85z M51.87,48.14
	c-0.42,1-1.56,1.63-2.78,1.53H35.95c-1.21,0.1-2.35-0.53-2.74-1.53c-0.37-0.83-1.16-2.83-1.57-3.88h21.78
	C53,45.32,52.21,47.35,51.87,48.14z M67.87,37.86c0-0.56,0.53-1.02,1.18-1.02c0.64,0.02,1.16,0.46,1.18,1.02v0.78h-2.35V37.86z
	 M71.62,41.03c-0.03,0.1-0.07,0.2-0.07,0.31v1.77c0,1.22-1.14,2.21-2.55,2.21c-1.41,0-2.55-0.99-2.55-2.21v-1.77
	c0-0.11-0.04-0.21-0.07-0.31H71.62z M18.58,41.33v1.77c0.03,0.18,0.03,0.37,0,0.55c-0.17,1.21-1.45,2.07-2.84,1.92
	c-1.4-0.15-2.39-1.26-2.21-2.47v-1.77c0-0.11-0.04-0.21-0.07-0.31h5.2C18.62,41.13,18.58,41.22,18.58,41.33z M14.86,37.86
	c0.02-0.56,0.54-1,1.18-1.02c0.01,0,0.03,0,0.04,0c0.65,0,1.18,0.46,1.18,1.02v0.78h-2.39V37.86z"/>
</svg>
