<?xml version="1.0" encoding="utf-8"?>
<!-- Generator: Adobe Illustrator 23.0.0, SVG Export Plug-In . SVG Version: 6.00 Build 0)  -->
<svg version="1.1" id="Vrstva_1" xmlns="http://www.w3.org/2000/svg" xmlns:xlink="http://www.w3.org/1999/xlink" x="0px" y="0px"
	 viewBox="0 0 85.04 85.04" style="enable-background:new 0 0 85.04 85.04;" xml:space="preserve">
<rect x="62.58" y="9.14" fill="none" width="17.35" height="15.18"/>
<polygon fill="none" points="81.01,43.99 40.74,43.99 40.74,9.14 24.32,9.14 24.32,58.4 81.01,58.4 "/>
<polygon fill="none" points="81.01,40.58 81.01,27.73 58.55,27.73 58.55,9.14 44.61,9.14 44.61,40.58 "/>
<polygon fill="none" points="20.29,61.8 20.29,8.98 4.03,8.98 4.03,75.9 81.17,75.9 81.17,61.8 "/>
<path d="M83.96,5.58h-25.4H40.58H20.14H0v73.89h85.04V5.58h-0.15H83.96z M24.32,9.14h16.42v35.01h40.27V58.4H24.32V9.14
	z M62.58,9.14h17.35v15.18H62.58V9.14z M58.55,9.14v18.59h22.31v13.01H44.61V9.29L58.55,9.14L58.55,9.14z M4.03,75.9V8.98h16.11
	v52.67h60.88V75.9H4.03z"/>
</svg>
