<?xml version="1.0" encoding="utf-8"?>
<!-- Generator: Adobe Illustrator 23.0.0, SVG Export Plug-In . SVG Version: 6.00 Build 0)  -->
<svg version="1.1" id="Vrstva_1" xmlns="http://www.w3.org/2000/svg" xmlns:xlink="http://www.w3.org/1999/xlink" x="0px" y="0px"
	 viewBox="0 0 85.04 85.04" style="enable-background:new 0 0 85.04 85.04;" xml:space="preserve">
<polygon fill="none" points="50.09,43.49 42.35,33.15 34.65,43.49 "/>
<polygon fill="none" points="60.94,31.85 45.35,31.85 53.14,42.27 "/>
<polygon fill="none" points="39.4,31.85 23.86,31.85 31.61,42.27 "/>
<polygon fill="none" points="45.54,71.29 71.2,46.38 54.35,46.38 "/>
<polygon fill="none" points="20.76,33.03 13.12,43.49 28.56,43.49 "/>
<polygon fill="none" points="33.83,46.38 42.35,70.36 50.87,46.38 "/>
<polygon fill="none" points="13.65,46.38 39.2,71.29 30.35,46.38 "/>
<polygon fill="none" points="71.78,43.49 63.99,33.03 56.19,43.49 "/>
<path d="M18.88,30.26l-9.29,12.6c-1.04,1.3-0.9,3.04,0.34,4.2l29.67,28.89c0.74,0.71,1.8,1.12,2.9,1.13
	c1.11,0,2.17-0.41,2.9-1.13l29.67-28.89c1.21-1.15,1.37-2.86,0.39-4.16l-9.24-12.6c-0.72-0.97-1.96-1.55-3.29-1.55h-40.8
	C20.82,28.76,19.61,29.32,18.88,30.26z M20.76,33.03l7.79,10.46H13.12L20.76,33.03z M13.65,46.38h16.7l8.86,24.9L13.65,46.38z
	 M42.35,70.36l-8.52-23.98h17.04L42.35,70.36z M45.54,71.29l8.81-24.9H71.2L45.54,71.29z M63.99,33.03l7.79,10.46H56.19L63.99,33.03
	z M60.94,31.85l-7.79,10.41l-7.79-10.41H60.94z M50.09,43.49H34.65l7.7-10.33L50.09,43.49z M39.4,31.85l-7.79,10.41l-7.74-10.41
	H39.4z"/>
<path d="M0,44.91c0,0.8,0.73,1.45,1.65,1.47h3.39c0.92-0.02,1.65-0.67,1.65-1.47c0-0.79-0.74-1.43-1.65-1.43H1.65
	C0.74,43.49,0,44.12,0,44.91z"/>
<path d="M85.04,44.91c0-0.79-0.74-1.43-1.65-1.43h-3.39c-0.92,0-1.67,0.63-1.69,1.43c0,0.81,0.76,1.47,1.69,1.47h3.39
	C84.31,46.36,85.04,45.71,85.04,44.91z"/>
<path d="M67.08,25.68l5.52-4.79c0.62-0.58,0.62-1.48,0-2.06c-0.67-0.54-1.7-0.54-2.37,0l-5.52,4.79
	c-0.62,0.58-0.62,1.48,0,2.06c0.32,0.27,0.76,0.43,1.21,0.42C66.36,26.1,66.77,25.95,67.08,25.68z"/>
<path d="M19.17,26.06c0.91,0.02,1.67-0.6,1.69-1.39c0.01-0.39-0.16-0.77-0.48-1.05l-5.52-4.79
	c-0.63-0.57-1.67-0.59-2.33-0.04c-0.02,0.01-0.03,0.03-0.04,0.04c-0.64,0.56-0.64,1.46,0,2.02L18,25.64
	C18.31,25.91,18.73,26.06,19.17,26.06z"/>
<path d="M44.19,18.79V9.39c0-0.79-0.74-1.43-1.65-1.43c-0.91,0-1.65,0.64-1.65,1.43v9.41c0,0.79,0.73,1.43,1.64,1.43
	c0.91,0,1.65-0.63,1.65-1.42C44.19,18.8,44.19,18.8,44.19,18.79z"/>
<path d="M41.38,22.74c-0.64,0.56-0.64,1.46,0,2.02c0.64,0.56,1.69,0.56,2.33,0c0.31-0.27,0.48-0.63,0.48-1.01
	c0.02-0.38-0.16-0.75-0.48-1.01C43.06,22.18,42.02,22.19,41.38,22.74z"/>
</svg>
