<?xml version="1.0" encoding="utf-8"?>
<!-- Generator: Adobe Illustrator 23.0.0, SVG Export Plug-In . SVG Version: 6.00 Build 0)  -->
<svg version="1.1" id="drone_1_" xmlns="http://www.w3.org/2000/svg" xmlns:xlink="http://www.w3.org/1999/xlink" x="0px" y="0px"
	 viewBox="0 0 85 85" style="enable-background:new 0 0 85 85;" xml:space="preserve">
<g>
	<path fill="none" d="M13.2,21.3c0,1.5,1.2,2.7,2.7,2.7c1.5,0,2.7-1.2,2.7-2.7v-1.4h-5.5V21.3z"/>
	<path fill="none" d="M31.8,26.6c0.6,1.7,2.1,2.8,3.9,2.8h13.6c1.8,0,3.3-1.1,3.9-2.8l0.9-2.7H30.9L31.8,26.6z"/>
	<path fill="none" d="M17.3,17.3c0-0.8-0.6-1.4-1.4-1.4c-0.8,0-1.4,0.6-1.4,1.4l0,0.1L17.3,17.3L17.3,17.3z"/>
	<path fill="none" d="M66.4,21.3c0,1.5,1.2,2.7,2.7,2.7c1.5,0,2.7-1.2,2.7-2.7v-1.4h-5.5V21.3z"/>
	<path fill="none" d="M70.6,17.3c0-0.8-0.6-1.4-1.4-1.4c-0.8,0-1.4,0.6-1.4,1.4v0.1L70.6,17.3L70.6,17.3z"/>
	<path d="M83.8,17.4H73.1v-0.1c0-2.2-1.8-3.9-3.9-3.9c-2.2,0-3.9,1.8-3.9,3.9v0.1H54.5c-0.7,0-1.2,0.6-1.2,1.2
		c0,0.7,0.6,1.2,1.2,1.2h9.4v1.4c0,0,0,0.1,0,0.1H21.1c0,0,0-0.1,0-0.1v-1.4h9.4c0.7,0,1.2-0.6,1.2-1.2c0-0.7-0.6-1.2-1.2-1.2H19.8
		v-0.1c0-2.2-1.8-3.9-3.9-3.9c-2.2,0-3.9,1.8-3.9,3.9v0.1H1.2C0.6,17.4,0,18,0,18.6c0,0.7,0.6,1.2,1.2,1.2h9.4v1.4
		c0,2.9,2.4,5.2,5.3,5.2c1.9,0,3.6-1,4.5-2.6h7.9l1.2,3.5c0.9,2.7,3.4,4.5,6.2,4.5h13.6c2.8,0,5.3-1.8,6.2-4.5l1.2-3.5h7.9
		c1.4,2.5,4.6,3.4,7.2,2c1.6-0.9,2.6-2.7,2.6-4.5v-1.4h9.4c0.7,0,1.2-0.6,1.2-1.2C85,18,84.5,17.4,83.8,17.4z M14.5,17.3
		c0-0.8,0.6-1.4,1.4-1.4c0.8,0,1.4,0.6,1.4,1.4v0.1L14.5,17.3L14.5,17.3z M18.6,21.3c0,1.5-1.2,2.7-2.7,2.7c-1.5,0-2.7-1.2-2.7-2.7
		v-1.4h5.5V21.3z M53.2,26.6c-0.6,1.7-2.1,2.8-3.9,2.8H35.7c-1.8,0-3.3-1.1-3.9-2.8l-0.9-2.7h23.2L53.2,26.6z M67.7,17.3
		c0-0.8,0.6-1.4,1.4-1.4c0.8,0,1.4,0.6,1.4,1.4v0.1L67.7,17.3L67.7,17.3z M71.9,21.3c0,1.5-1.2,2.7-2.7,2.7c-1.5,0-2.7-1.2-2.7-2.7
		v-1.4h5.5V21.3z"/>
	<path d="M43.5,41.6c-0.5-0.5-1.2-0.6-1.8-0.1c0,0-0.1,0.1-0.1,0.1l-9.3,10.7c-0.5,0.5-0.4,1.3,0.1,1.8
		c0.2,0.2,0.5,0.3,0.8,0.3l0,0h4.2l1.2,16.2c0.1,0.7,0.7,1.2,1.3,1.1c0.7-0.1,1.2-0.7,1.1-1.3L39.8,53c0-0.7-0.6-1.2-1.2-1.2H36
		l6.6-7.5l6.6,7.5h-2.6c-0.7,0-1.2,0.5-1.2,1.2l-1.3,17.3c-0.1,0.7,0.5,1.3,1.1,1.3c0,0,0,0,0,0h0.1c0.7,0,1.2-0.5,1.2-1.2l1.2-16.2
		h4.2c0.7,0,1.2-0.6,1.2-1.3c0-0.3-0.1-0.6-0.3-0.8L43.5,41.6z"/>
</g>
</svg>
