<?xml version="1.0" encoding="utf-8"?>
<!-- Generator: Adobe Illustrator 23.0.2, SVG Export Plug-In . SVG Version: 6.00 Build 0)  -->
<svg version="1.1" id="Group_331" xmlns="http://www.w3.org/2000/svg" xmlns:xlink="http://www.w3.org/1999/xlink" x="0px" y="0px"
	 viewBox="0 0 30 30" style="enable-background:new 0 0 30 30;" xml:space="preserve">
<path d="M29.3,19.5c-0.5-0.5-1.4-0.5-1.9,0l-1.8,1.8c-0.1-0.2-0.2-0.3-0.4-0.5l0,0l-2-2.1c-0.4-0.4-0.6-0.8-0.6-1.3V13
	c0-0.5,0.2-1,0.6-1.3l2.1-2.1c0.2-0.2,0.4-0.4,0.5-0.7l1.7,1.7c0.5,0.5,1.4,0.5,1.9,0c0.5-0.5,0.5-1.4,0-1.9l0,0L26.8,6
	c0.3-1.3-0.6-2.5-1.9-2.7c-0.3-0.1-0.6-0.1-0.9,0l-2.6-2.6c-0.5-0.5-1.4-0.5-1.9,0s-0.5,1.4,0,1.9l1.9,1.9c-0.2,0.1-0.5,0.3-0.7,0.5
	l-2.1,2.1c-0.4,0.4-0.8,0.6-1.3,0.6h-4.3c-0.5,0-1-0.2-1.3-0.6L9.3,4.7C9.1,4.5,8.9,4.4,8.7,4.3l2-2c0.5-0.5,0.5-1.4,0-1.9
	s-1.4-0.5-1.9,0L6.2,3.2C4.8,2.9,3.5,3.7,3.4,5.1C3.3,5.4,3.3,5.7,3.4,6L0.7,8.6c-0.6,0.6-0.6,1.4,0,1.9c0.5,0.5,1.4,0.5,1.9,0
	L4.1,9c0.1,0.2,0.3,0.4,0.4,0.5l0,0l2.1,2.1c0.4,0.4,0.6,0.9,0.6,1.4v4.3c0,0.5-0.2,1-0.6,1.3l-2.1,2.1c-0.1,0.1-0.2,0.3-0.3,0.4
	l-1.7-1.7C2,19,1.1,19,0.6,19.5c-0.5,0.6-0.5,1.4,0.1,2l2.6,2.6c-0.3,1.3,0.6,2.5,1.9,2.7c0.3,0.1,0.6,0.1,0.9,0l2.6,2.6
	c0.5,0.5,1.4,0.5,1.9,0s0.5-1.4,0-1.9l0,0l-1.8-1.7c0.1-0.1,0.3-0.2,0.4-0.3l2.1-2.1c0.4-0.4,0.8-0.6,1.3-0.6H17
	c0.5,0,1,0.2,1.3,0.6l2.1,2.1c0.2,0.2,0.3,0.3,0.5,0.4l-1.7,1.7c-0.5,0.5-0.5,1.4,0,1.9s1.4,0.5,1.9,0l2.6-2.6
	c0.8,0.2,1.6-0.1,2.2-0.7c0.6-0.6,0.8-1.4,0.7-2.2l2.6-2.6C29.8,20.8,29.8,20,29.3,19.5L29.3,19.5z M19.9,21.9
	c-0.8-0.8-1.8-1.2-2.7-1.2h-4.3c-1.1,0-2.1,0.4-2.7,1.2l-2,1.9c-0.3-0.9-1-1.6-1.9-1.7c0,0,0,0-0.1,0l2-2c0.8-0.8,1.2-1.8,1.2-2.7
	V13c0-1.1-0.4-2.1-1.2-2.7L6.1,8C6.1,8,6,7.9,6,7.8c0.9-0.1,1.7-0.7,2-1.5l2,2c0.8,0.8,1.8,1.2,2.7,1.2H17c1.1,0,2.1-0.4,2.7-1.2
	L22,6.2l0,0c0.3,0.8,1,1.5,1.9,1.6c0,0,0,0,0.1,0c0,0.1-0.1,0.1-0.1,0.2l0,0l-2.1,2.1c-0.8,0.8-1.2,1.8-1.2,2.7v4.3
	c0,1.1,0.4,2.1,1.2,2.7l2,2c-0.9,0.2-1.6,0.9-1.8,1.8L19.9,21.9z"/>
</svg>
