<?xml version="1.0" encoding="utf-8"?>
<!-- Generator: Adobe Illustrator 21.1.0, SVG Export Plug-In . SVG Version: 6.00 Build 0)  -->
<svg version="1.1" id="Vrstva_1" xmlns="http://www.w3.org/2000/svg" xmlns:xlink="http://www.w3.org/1999/xlink" x="0px" y="0px"
	 width="12px" height="12px" viewBox="0 0 12 12" style="enable-background:new 0 0 12 12;" xml:space="preserve">
<title>pencil - Material Design Icons</title>
<desc>Created with Sketch.</desc>
<g id="Sprava-uzivatelu" transform="translate(-1225.000000, -593.000000)">
	<g id="Group-2-Copy-8" transform="translate(1213.000000, 592.000000)">
		<g>
			<path d="M19.4,3.2l2.5,2.5L14.5,13H12v-2.6L19.4,3.2z M22.5,5L20,2.5l1.2-1.2C21.4,1.1,21.5,1,21.7,1c0.2,0,0.3,0.1,0.5,0.2
				l1.6,1.6C23.9,2.9,24,3,24,3.3s-0.1,0.3-0.2,0.5L22.5,5z"/>
		</g>
	</g>
</g>
</svg>
