<?xml version="1.0" encoding="utf-8"?>
<!-- Generator: Adobe Illustrator 23.0.0, SVG Export Plug-In . SVG Version: 6.00 Build 0)  -->
<svg version="1.1" id="Vrstva_1" xmlns="http://www.w3.org/2000/svg" xmlns:xlink="http://www.w3.org/1999/xlink" x="0px" y="0px"
	 viewBox="0 0 30 30" style="enable-background:new 0 0 30 30;" xml:space="preserve">
<g>
	<path d="M26.3,3.6H3.7c-2.1,0-3.7,1.6-3.7,3.7v15.4c0,2,1.6,3.7,3.7,3.7h22.6c2,0,3.7-1.6,3.7-3.7V7.3
		C30,5.2,28.4,3.6,26.3,3.6z M26.3,24.7H3.7c-1.1,0-2-0.9-2-2V7.3c0-1.1,0.9-2,2-2h22.6c1.1,0,2,0.9,2,2v15.4l0,0
		C28.3,23.8,27.4,24.7,26.3,24.7z"/>
	<path d="M26.3,21.8l-7.4-7l7.3-6.6c0.3-0.3,0.4-0.8,0.1-1.2c-0.3-0.3-0.8-0.3-1.2,0L15,16.1l-2-1.8l0,0l-0.1-0.1L4.9,7
		C4.5,6.7,4,6.7,3.7,7c-0.3,0.4-0.3,0.9,0,1.2l7.4,6.6l-7.4,6.9c-0.3,0.3-0.4,0.8,0,1.2c0.2,0.2,0.4,0.3,0.6,0.3s0.4-0.1,0.6-0.2
		l7.5-7l2,1.8c0.3,0.3,0.8,0.3,1.1,0l2.1-1.9l7.5,7.1c0.3,0.3,0.9,0.3,1.2,0C26.6,22.7,26.6,22.1,26.3,21.8z"/>
</g>
</svg>
