<?xml version="1.0" encoding="utf-8"?>
<!-- Generator: Adobe Illustrator 23.0.0, SVG Export Plug-In . SVG Version: 6.00 Build 0)  -->
<svg version="1.1" id="Vrstva_1" xmlns="http://www.w3.org/2000/svg" xmlns:xlink="http://www.w3.org/1999/xlink" x="0px" y="0px"
	 viewBox="0 0 20 20" style="enable-background:new 0 0 20 20;" xml:space="preserve">
<g>
	<path fill="none" d="M14,5.6c-0.8,0-1.4-0.7-1.4-1.4V1.4L5.1,1.5c-0.5,0-0.9,0.3-0.9,0.8V10h10c0.5,0,0.9,0.4,0.9,0.9V16
		c0,0.5-0.4,0.9-0.9,0.9h-10v0.9c0,0.5,0.4,0.8,0.8,0.8h10.8l0,0l0,0c0.5,0,0.8-0.4,0.8-0.8V5.6L14,5.6z"/>
	<path fill="none" d="M5,14c0.1,0,0.2,0,0.3,0c0.4,0,0.9-0.1,1.2-0.4c0.2-0.2,0.3-0.5,0.3-0.9c0-0.3-0.1-0.6-0.4-0.8
		c-0.3-0.2-0.7-0.3-1.1-0.3c-0.4,0-0.7,0-1.1,0.1v3.5H5L5,14L5,14z M5,12.4c0.1,0,0.2-0.1,0.3,0c0.4,0,0.7,0.2,0.7,0.5
		c0,0.4-0.3,0.6-0.7,0.6c-0.1,0-0.2,0-0.3,0L5,12.4L5,12.4z"/>
	<path fill="none" d="M10.4,13.4c0.1-0.5-0.2-1-0.6-1.3c-0.5-0.3-0.9-0.4-1.4-0.4c-0.4,0-0.7,0-1.1,0.1v3.5c0.3,0.1,0.6,0.1,0.9,0.1
		c0.6,0.1,1.2-0.1,1.6-0.5C10.2,14.5,10.5,13.9,10.4,13.4z M8.4,14.7c-0.1,0-0.2,0-0.3,0v-2.3c0.1,0,0.3-0.1,0.4,0
		c0.1,0,0.1,0,0.2,0c0.6,0.1,1,0.6,0.9,1.1c0,0.1,0,0.2,0,0.3C9.5,14.3,9,14.7,8.4,14.7z"/>
	<polygon fill="none" points="13.1,12.4 13.1,11.7 10.9,11.7 10.9,15.2 11.8,15.2 11.8,13.9 13,13.9 13,13.2 11.8,13.2 11.8,12.4
		"/>
	<path fill="#FF7070" d="M5.9,12.8c0-0.3-0.2-0.5-0.7-0.5c-0.1,0-0.2,0-0.3,0v1c0.1,0,0.2,0,0.3,0C5.7,13.4,5.9,13.2,5.9,12.8z"/>
	<path fill="#FF7070" d="M8.6,12.3c-0.1,0-0.1,0-0.2,0c-0.1,0-0.3,0-0.4,0v2.3c0.1,0,0.2,0,0.3,0c0.6,0.1,1.1-0.4,1.2-1
		c0-0.1,0-0.2,0-0.3C9.6,12.9,9.2,12.4,8.6,12.3z"/>
	<path fill="#FF7070" d="M13,0.2H5.1C4,0.2,3,1.1,3,2.3V10H2.9C2.4,10,2,10.4,2,10.9V16c0,0.5,0.4,0.9,0.9,0.9H3v0.9
		c0,1.2,0.9,2.1,2.1,2.1h10.8c1.2,0,2.1-0.9,2.1-2.1V5.1L13,0.2z M4.2,11.8c0.3-0.1,0.7-0.1,1.1-0.1c0.4,0,0.8,0.1,1.1,0.3
		c0.3,0.2,0.4,0.5,0.4,0.8c0,0.3-0.1,0.6-0.3,0.9C6.2,13.9,5.8,14,5.3,14c-0.1,0-0.2,0-0.3,0v1.2H4.2V11.8z M15.9,18.5L15.9,18.5
		L15.9,18.5H5.1c-0.5,0-0.8-0.4-0.8-0.8v-0.9h10c0.5,0,0.9-0.4,0.9-0.9v-5.1c0-0.5-0.4-0.9-0.9-0.9H4.3V2.3c0-0.5,0.4-0.8,0.9-0.8
		h7.4v2.8c0,0.8,0.7,1.4,1.4,1.4h2.7v12.1C16.8,18.2,16.4,18.5,15.9,18.5z M7.2,15.2v-3.5c0.3-0.1,0.7-0.1,1.1-0.1
		c0.5-0.1,1,0.1,1.4,0.4c0.4,0.3,0.7,0.9,0.6,1.3c0,0.5-0.2,1-0.6,1.4c-0.5,0.3-1,0.5-1.6,0.5C7.9,15.3,7.6,15.3,7.2,15.2z M13,13.2
		v0.7h-1.2v1.4H11v-3.5h2.2v0.7h-1.4v0.8L13,13.2z"/>
</g>
</svg>
