<?xml version="1.0" encoding="utf-8"?>
<!-- Generator: Adobe Illustrator 23.0.0, SVG Export Plug-In . SVG Version: 6.00 Build 0)  -->
<svg version="1.1" id="Vrstva_1" xmlns="http://www.w3.org/2000/svg" xmlns:xlink="http://www.w3.org/1999/xlink" x="0px" y="0px"
	 viewBox="0 0 85.04 85.04" style="enable-background:new 0 0 85.04 85.04;" xml:space="preserve">
<polygon fill="none" points="68.42,52.42 81.86,55.57 81.86,29.99 68.42,33.14 "/>
<path fill="none" d="M65.28,25.67c-0.02-1.39-1.31-2.51-2.91-2.53H6.05c-1.6,0.02-2.89,1.14-2.91,2.53v34.29
	c0.02,1.39,1.31,2.51,2.91,2.53h56.32c1.6-0.02,2.89-1.14,2.91-2.53v-6.45V32.12V25.67z M27.82,48.06h-2.33v-4.59h-5.06v4.59H18.1
	V37.72h2.33v3.89h5.06v-3.89h2.33V48.06z M38.53,46.59c-1.26,0.88-2.87,1.3-4.48,1.17h-3.41V37.61h3.45
	c1.62-0.11,3.22,0.32,4.48,1.21c1.34,0.96,2.13,2.38,2.15,3.89C40.67,44.21,39.87,45.62,38.53,46.59z M48.52,47.95l-3.23-4.16h-0.31
	v4.16h-2.33V37.61h3.45c1.08-0.07,2.15,0.18,3.05,0.7c0.75,0.6,1.17,1.45,1.16,2.33c0.03,0.86-0.36,1.7-1.08,2.29
	c-0.45,0.36-1.01,0.59-1.61,0.66l3.72,4.35H48.52z"/>
<path fill="none" d="M45.7,39.24h-0.72v3.11h0.67c1.48,0,2.29-0.54,2.29-1.56C47.94,39.78,47.18,39.24,45.7,39.24z"/>
<path fill="none" d="M33.6,39.35h-0.63v6.84h0.63c1.14,0.09,2.28-0.2,3.18-0.82c0.83-0.68,1.3-1.62,1.3-2.6
	c0-0.99-0.47-1.93-1.3-2.6C35.88,39.56,34.75,39.26,33.6,39.35z"/>
<path d="M83.47,58.72c0.33,0.02,0.67-0.06,0.94-0.23c0.39-0.26,0.63-0.66,0.63-1.09V28.24c0-0.43-0.23-0.83-0.63-1.09
	c-0.39-0.25-0.88-0.33-1.34-0.23l-14.65,3.43v-4.71c-0.02-2.89-2.72-5.23-6.05-5.25H6.05C2.71,20.38,0,22.73,0,25.63v34.29
	c0,2.9,2.71,5.25,6.05,5.25h56.32c3.33-0.02,6.02-2.36,6.05-5.25v-4.63l14.65,3.43H83.47z M65.28,59.96
	c-0.02,1.39-1.31,2.51-2.91,2.53H6.05c-1.6-0.02-2.89-1.14-2.91-2.53V25.67c0.02-1.39,1.31-2.51,2.91-2.53h56.32
	c1.6,0.02,2.89,1.14,2.91,2.53v6.45v21.38V59.96z M81.86,55.57l-13.44-3.15V33.14l13.44-3.15V55.57z"/>
<polygon points="25.49,41.61 20.43,41.61 20.43,37.72 18.1,37.72 18.1,48.06 20.43,48.06 20.43,43.48 25.49,43.48
	25.49,48.06 27.82,48.06 27.82,37.72 25.49,37.72 "/>
<path d="M34.1,37.61h-3.45v10.15h3.41c1.61,0.13,3.22-0.29,4.48-1.17c1.34-0.96,2.14-2.38,2.2-3.89
	c-0.02-1.51-0.81-2.93-2.15-3.89C37.32,37.93,35.71,37.49,34.1,37.61z M36.78,45.38c-0.9,0.61-2.04,0.91-3.18,0.82h-0.63v-6.84h0.63
	c1.14-0.09,2.28,0.2,3.18,0.82c0.83,0.67,1.3,1.62,1.3,2.6C38.08,43.76,37.61,44.71,36.78,45.38z"/>
<path d="M49.24,42.93c0.72-0.6,1.11-1.43,1.08-2.29c0.01-0.89-0.42-1.73-1.16-2.33c-0.9-0.52-1.97-0.77-3.05-0.7h-3.45
	v10.34h2.33v-4.16h0.31l3.23,4.16h2.82l-3.72-4.35C48.23,43.52,48.79,43.29,49.24,42.93z M45.66,42.35h-0.67v-3.11h0.72
	c1.48,0,2.24,0.54,2.24,1.56C47.94,41.8,47.13,42.35,45.66,42.35z"/>
</svg>
