<?xml version="1.0" encoding="utf-8"?>
<!-- Generator: Adobe Illustrator 23.0.0, SVG Export Plug-In . SVG Version: 6.00 Build 0)  -->
<svg version="1.1" id="Vrstva_1" xmlns="http://www.w3.org/2000/svg" xmlns:xlink="http://www.w3.org/1999/xlink" x="0px" y="0px"
	 viewBox="0 0 20 20" style="enable-background:new 0 0 20 20;" xml:space="preserve">
<title>heart-o - anticon</title>
<desc>Created with Sketch.</desc>
<g id="Svitidlo---detail" transform="translate(-995.000000, -4810.000000)">
	<g id="Group-25" transform="translate(40.000000, 3993.000000)">
		<g id="Group-16" transform="translate(161.000000, 626.000000)">
			<g id="Group-10-Copy-6" transform="translate(19.000000, 179.000000)">
				<g id="Group-8">
					<path id="heart-o---anticon" d="M794.6,16.9c0.3,0.8,0.4,1.6,0.4,2.3c0,0.9-0.2,1.8-0.6,2.6c-0.3,0.8-0.9,1.5-1.6,2
						c-0.4,0.4-1.8,1.7-3.8,3.5c-1.9,1.8-3.1,2.8-3.6,3.2c-0.1,0.1-0.3,0.2-0.4,0.2s-0.3-0.1-0.4-0.2c-0.7-0.6-2.3-2.1-5-4.6
						c-1.3-1.2-2-1.9-2.2-2c0,0-0.1-0.1-0.2-0.1c-0.7-0.6-1.2-1.2-1.6-2c-0.3-0.8-0.6-1.7-0.6-2.6c0-0.8,0.1-1.7,0.4-2.3
						c0.3-0.8,0.8-1.3,1.3-1.9c1.1-1.1,2.5-1.7,3.9-1.7c0.9,0,1.7,0.2,2.3,0.6c0.7,0.3,1.5,0.9,1.9,1.6c0.6-0.7,1.2-1.2,1.9-1.6
						s1.6-0.6,2.3-0.6c1.6,0,2.8,0.6,3.9,1.7C793.8,15.4,794.3,16.1,794.6,16.9z M786.1,16.3c-0.2,0.3-0.7,0.6-1.1,0.6
						s-0.8-0.2-1.1-0.6c-0.4-0.6-0.9-0.9-1.5-1.2c-0.6-0.3-1.1-0.4-1.8-0.4c-1.1,0-2.1,0.4-2.9,1.2c-0.4,0.4-0.8,0.9-1,1.5
						c-0.2,0.6-0.3,1.2-0.3,1.8c0,0.7,0.1,1.3,0.4,1.9c0.3,0.6,0.7,1.1,1.2,1.6l0.1,0.1c0,0,0,0,0,0.1c0.2,0.2,0.9,0.8,1.9,1.7
						l0.9,0.9c1.9,1.7,3.2,2.9,4,3.6c0.6-0.6,1.6-1.5,3-2.8c1.8-1.7,3-2.8,3.9-3.6l0,0c0.4-0.4,0.9-0.9,1.2-1.6
						c0.3-0.7,0.4-1.3,0.4-2c0-0.7-0.1-1.2-0.3-1.8c-0.2-0.6-0.6-1-1-1.5c-0.8-0.8-1.8-1.2-2.9-1.2c-0.7,0-1.2,0.1-1.8,0.4
						C787,15.3,786.4,15.9,786.1,16.3z"/>
				</g>
			</g>
		</g>
	</g>
</g>
</svg>
