<?xml version="1.0" encoding="utf-8"?>
<!-- Generator: Adobe Illustrator 23.0.0, SVG Export Plug-In . SVG Version: 6.00 Build 0)  -->
<svg version="1.1" id="Vrstva_1" xmlns="http://www.w3.org/2000/svg" xmlns:xlink="http://www.w3.org/1999/xlink" x="0px" y="0px"
	 viewBox="0 0 85.04 85.04" style="enable-background:new 0 0 85.04 85.04;" xml:space="preserve">
<style type="text/css">
	.st0{fill:none;}
	.st1{fill:#020202;}
</style>
<path class="st0" fill="none" d="M17.26,47.43v-0.71c0-0.58-0.54-1.05-1.22-1.05c-0.65,0-1.18,0.46-1.18,1.02c0,0.01,0,0.02,0,0.03v0.71H17.26z"
	/>
<path class="st0" fill="none" d="M66.47,51.92c-0.17,1.21,0.82,2.32,2.21,2.47c1.4,0.15,2.67-0.71,2.84-1.92c0.03-0.18,0.03-0.37,0-0.55v-1.77
	c0-0.12,0.04-0.23,0.08-0.34h-5.22c0.04,0.11,0.08,0.22,0.08,0.34V51.92z"/>
<path class="st0" fill="none" d="M13.58,50.08c0,0.02,0,0.05,0,0.07v1.77c0,1.22,1.14,2.21,2.55,2.21c1.41,0,2.55-0.99,2.55-2.21v-1.77
	c0-0.12,0.04-0.23,0.08-0.34h-5.25C13.53,49.9,13.58,49.99,13.58,50.08z"/>
<path class="st0" fill="none" d="M33.02,56.92c0.44,0.98,1.57,1.6,2.78,1.53h13.13c1.21,0.08,2.33-0.55,2.74-1.53c0.36-0.78,1.15-2.77,1.57-3.84
	H31.5C31.92,54.14,32.69,56.1,33.02,56.92z"/>
<path class="st0" fill="none" d="M70.19,46.72c0.12-0.57-0.32-1.12-0.98-1.23c-0.66-0.1-1.29,0.28-1.41,0.85c-0.03,0.12-0.03,0.25,0,0.38v0.71
	h2.39V46.72z"/>
<path d="M36.47,23.21v11.77c0,0.66,0.61,1.19,1.37,1.19c0.06,0,0.11,0,0.17-0.01c0.75-0.08,1.29-0.67,1.21-1.32V23.21
	c0-0.65-0.61-1.19-1.37-1.19C37.09,22.02,36.48,22.55,36.47,23.21z"/>
<path d="M48.24,22.02c-0.76,0-1.37,0.53-1.37,1.19v11.77c0,0.66,0.61,1.19,1.37,1.19c0.06,0,0.11,0,0.17-0.01
	c0.75-0.08,1.29-0.67,1.21-1.32V23.21C49.61,22.55,48.99,22.02,48.24,22.02L48.24,22.02z"/>
<path d="M58.59,22.02c-0.76,0-1.37,0.53-1.37,1.19v11.77c0,0.66,0.61,1.19,1.37,1.19c0.06,0,0.11,0,0.17-0.01
	c0.75-0.08,1.29-0.67,1.21-1.32V23.21C59.96,22.55,59.35,22.02,58.59,22.02L58.59,22.02z"/>
<path d="M67.53,40.83c0.71,0.02,1.31-0.44,1.37-1.05V20.39c0-0.01,0-0.02,0-0.03c0-2.54-2.37-4.59-5.29-4.59H33.61
	c-0.35,0-0.69,0.13-0.94,0.34L16.6,29.13c-0.3,0.22-0.47,0.54-0.47,0.88v9.63c0,0.66,0.61,1.19,1.37,1.19c0.03,0,0.05,0,0.08,0
	c0.74-0.02,1.31-0.55,1.29-1.19v-9.25l15.29-12.35h29.44c1.41,0,2.55,0.99,2.55,2.21v19.39C66.15,40.3,66.77,40.83,67.53,40.83z"/>
<path d="M17.5,58.89L17.5,58.89c-0.76,0-1.37,0.53-1.37,1.19v6.16c0.02,2.53,2.38,4.57,5.29,4.59h42.19h0
	c2.92,0,5.29-2.06,5.29-4.59v-6.16c0-0.66-0.61-1.19-1.37-1.19s-1.37,0.53-1.37,1.19v6.16c-0.02,1.21-1.16,2.18-2.55,2.18H21.42
	c-1.39,0-2.53-0.97-2.55-2.18v-6.16C18.87,59.43,18.26,58.89,17.5,58.89z"/>
<path d="M10.91,49.81c-0.04,0.11-0.08,0.22-0.08,0.34v1.77c0.02,2.53,2.38,4.57,5.29,4.59
	c2.45-0.02,4.49-1.47,5.09-3.44h7.53l-0.12,0.03c0,0,1.37,3.57,1.84,4.66c0.83,1.88,2.93,3.11,5.25,3.06h1.96h0.16h11.17
	c2.31,0.04,4.4-1.19,5.21-3.06c0.51-1.26,1.88-4.66,1.88-4.66L56,53.08h7.91c0.59,1.97,2.64,3.44,5.1,3.44
	c2.91-0.02,5.25-2.07,5.25-4.59v-1.77c0-0.02,0-0.05,0-0.07c0-0.1-0.04-0.18-0.07-0.27h9.48c0.76,0,1.37-0.53,1.37-1.19
	c0-0.66-0.61-1.19-1.37-1.19H72.9v-0.71c0-1.88-1.76-3.4-3.92-3.4c-2.17,0-3.92,1.52-3.92,3.4v0.71H54.31h0
	c-0.76,0-1.37,0.53-1.37,1.19c0,0.66,0.61,1.19,1.37,1.19h9.49c-0.04,0.11-0.08,0.22-0.08,0.34v0.54h-42.3v-0.54c0,0,0,0,0-0.01
	c0-0.12-0.04-0.23-0.08-0.33h9.37c0.03,0,0.05,0,0.08,0c0.74-0.02,1.31-0.55,1.29-1.19c0-0.66-0.61-1.19-1.37-1.19H19.97v-0.71
	c0-1.88-1.76-3.4-3.92-3.4s-3.92,1.52-3.92,3.4v0.71H1.39h0c-0.76,0-1.37,0.53-1.37,1.19c0,0.02,0,0.05,0,0.07
	c0.02,0.64,0.64,1.14,1.37,1.12H10.91z M51.69,56.92c-0.42,0.99-1.54,1.61-2.74,1.53H35.81c-1.21,0.07-2.34-0.55-2.78-1.53
	c-0.34-0.82-1.11-2.78-1.52-3.84h21.75C52.84,54.15,52.05,56.14,51.69,56.92z M67.8,46.72c-0.03-0.12-0.03-0.25,0-0.38
	c0.12-0.57,0.75-0.95,1.41-0.85c0.66,0.1,1.1,0.65,0.98,1.23v0.71H67.8V46.72z M71.6,49.81c-0.04,0.11-0.08,0.22-0.08,0.34v1.77
	c0.03,0.18,0.03,0.37,0,0.55c-0.17,1.21-1.45,2.07-2.84,1.92c-1.4-0.15-2.39-1.26-2.21-2.47v-1.77c0-0.12-0.04-0.23-0.08-0.34H71.6z
	 M18.68,50.15v1.77c0,1.22-1.14,2.21-2.55,2.21c-1.41,0-2.55-0.99-2.55-2.21v-1.77c0-0.02,0-0.05,0-0.07c0-0.1-0.04-0.18-0.07-0.27
	h5.25C18.72,49.92,18.67,50.03,18.68,50.15z M14.87,46.68c0-0.56,0.53-1.02,1.18-1.02c0.67,0,1.22,0.47,1.22,1.05v0.71h-2.39v-0.71
	C14.87,46.7,14.87,46.69,14.87,46.68z"/>
</svg>
