<?xml version="1.0" encoding="utf-8"?>
<!-- Generator: Adobe Illustrator 23.0.0, SVG Export Plug-In . SVG Version: 6.00 Build 0)  -->
<svg version="1.1" id="Vrstva_1" xmlns="http://www.w3.org/2000/svg" xmlns:xlink="http://www.w3.org/1999/xlink" x="0px" y="0px"
	 viewBox="0 0 85.04 85.04" style="enable-background:new 0 0 85.04 85.04;" xml:space="preserve">
<style type="text/css">
	.st0{fill:none;}
	.st1{fill:#161411;}
</style>
<path class="st0" fill="none" d="M23.39,65.86c1.06-0.24,2.15,0.31,2.43,1.24l3.47,11.21l9.85-14.86c-7.45-0.6-14.51-3.19-20.2-7.41l-8.54,12.84
	l12.98-3.01C23.38,65.87,23.38,65.86,23.39,65.86z"/>
<path class="st0" fill="none" d="M42.55,60.09c0.04,0,0.08,0,0.11,0c17.85-0.03,32.3-12.61,32.27-28.1C74.9,16.5,60.4,3.97,42.55,3.99
	C24.7,4.02,10.25,16.6,10.28,32.09l-0.11,0c0,0,0,0,0,0C10.2,47.58,24.69,60.12,42.55,60.09z M66.51,32.09
	c-0.04-0.2-0.04-0.39,0-0.59c0.19-0.97,1.24-1.62,2.36-1.46c1.12,0.16,1.87,1.08,1.68,2.05c0.03,0.36,0.03,0.72,0,1.09
	c-0.03,0.93-0.91,1.68-1.99,1.68c-0.06,0-0.12,0-0.17,0c-1.1-0.06-1.94-0.87-1.87-1.83V32.09z M65.88,37.37
	c0.3-0.94,1.42-1.49,2.5-1.23c1.05,0.26,1.68,1.2,1.42,2.12C66.5,49.03,55.28,56.54,42.43,56.58c-0.86-0.13-1.53-0.71-1.68-1.46
	c-0.19-0.97,0.56-1.89,1.68-2.05C53.46,53.09,63.11,46.63,65.88,37.37z M18.25,32.09c-0.03,0.96-0.94,1.73-2.05,1.73
	c-1.1,0-1.99-0.77-1.99-1.73v-1.14c0.09-0.95,1.01-1.68,2.11-1.68c1.11,0.05,1.97,0.86,1.94,1.83V32.09z M17.05,27.99h-0.51
	c-0.01,0-0.01,0-0.02,0c-1.06-0.25-1.69-1.2-1.4-2.12C18.42,15.12,29.61,7.62,42.43,7.55c1.11,0,2.02,0.77,2.05,1.73
	c-0.06,0.94-0.96,1.68-2.05,1.68c-11.02,0-20.65,6.45-23.45,15.7C18.78,27.44,17.97,27.99,17.05,27.99z"/>
<path class="st0" fill="none" d="M45.68,63.5l9.85,14.81L59,67.1c0.3-0.94,1.42-1.49,2.5-1.23l12.92,3.06l-8.54-12.84
	C60.19,60.32,53.13,62.9,45.68,63.5z"/>
<path d="M42.43,10.96c1.09,0,1.99-0.74,2.05-1.68c-0.03-0.96-0.94-1.73-2.05-1.73c-12.82,0.07-24.01,7.57-27.32,18.32
	c-0.29,0.92,0.34,1.87,1.4,2.12c0.01,0,0.01,0,0.02,0h0.51c0.92,0,1.72-0.55,1.94-1.33C21.78,17.41,31.41,10.96,42.43,10.96z"/>
<path d="M16.31,29.28c-1.1,0-2.02,0.73-2.11,1.68v1.14c0,0.95,0.89,1.73,1.99,1.73c1.11,0,2.02-0.77,2.05-1.73V31.1
	C18.28,30.14,17.42,29.33,16.31,29.28z"/>
<path d="M40.76,55.13c0.15,0.75,0.82,1.33,1.68,1.46c12.84-0.05,24.06-7.55,27.37-18.32c0.26-0.92-0.37-1.86-1.42-2.12
	c-1.08-0.25-2.2,0.3-2.5,1.23c-2.78,9.26-12.42,15.72-23.45,15.7C41.32,53.24,40.57,54.16,40.76,55.13z"/>
<path d="M68.38,34.85c0.06,0,0.12,0,0.17,0c1.08,0,1.96-0.74,1.99-1.68c0.03-0.36,0.03-0.72,0-1.09
	c0.19-0.97-0.56-1.88-1.68-2.05c-1.12-0.16-2.17,0.49-2.36,1.46c-0.04,0.2-0.04,0.39,0,0.59v0.94
	C66.44,33.98,67.28,34.8,68.38,34.85z"/>
<path d="M5.27,73.19c0.46,0.23,1.02,0.3,1.54,0.19l15.71-3.65l4.21,13.58c0.17,0.69,0.84,1.21,1.65,1.28h0.28
	c0.73-0.01,1.39-0.35,1.76-0.89l12.18-18.37l12.24,18.37c0.36,0.56,1.03,0.9,1.76,0.89c0.82-0.08,1.5-0.59,1.71-1.28l4.21-13.58
	l15.71,3.6c0.78,0.19,1.61-0.04,2.11-0.59c0.53-0.56,0.6-1.35,0.17-1.98L69.13,53.52c13.69-12.75,12.88-32.72-1.81-44.6
	C52.62-2.95,29.61-2.25,15.91,10.5C2.9,22.62,2.9,41.4,15.91,53.52L4.53,70.76C3.96,71.6,4.29,72.69,5.27,73.19z M74.42,68.93
	L61.5,65.87c-1.08-0.25-2.2,0.3-2.5,1.23l-3.47,11.21L45.68,63.5c7.46-0.59,14.52-3.18,20.2-7.41L74.42,68.93z M10.17,32.09
	C10.17,32.09,10.17,32.09,10.17,32.09l0.11,0C10.25,16.6,24.7,4.02,42.55,3.99c17.85-0.03,32.35,12.51,32.38,28
	c0.03,15.49-14.42,28.07-32.27,28.1c-0.04,0-0.08,0-0.11,0C24.69,60.12,10.2,47.58,10.17,32.09z M18.93,56.04
	c5.69,4.22,12.75,6.8,20.2,7.41l-9.85,14.86L25.82,67.1c-0.28-0.92-1.36-1.48-2.43-1.24c-0.01,0-0.01,0-0.02,0l-12.98,3.01
	L18.93,56.04z"/>
</svg>
