<?xml version="1.0" encoding="utf-8"?>
<!-- Generator: Adobe Illustrator 23.0.0, SVG Export Plug-In . SVG Version: 6.00 Build 0)  -->
<svg version="1.1" id="Vrstva_1" xmlns="http://www.w3.org/2000/svg" xmlns:xlink="http://www.w3.org/1999/xlink" x="0px" y="0px"
	 viewBox="0 0 82.2 82.2" style="enable-background:new 0 0 82.2 82.2;" xml:space="preserve">
<g>
	<path class="st0" fill="none" d="M34.6,8.7c-13.5,0-24.5,11-24.5,24.5c0,13.5,11,24.5,24.5,24.5c13.5,0,24.5-11,24.5-24.5
		C59.1,19.7,48.2,8.7,34.6,8.7z M45.8,39.4c0.7,0.7,1,1.6,1,2.5c0,0.9-0.3,1.8-1,2.5c-0.7,0.7-1.6,1-2.5,1s-1.8-0.3-2.5-1l-6.2-6.2
		l-6.2,6.2c-1.4,1.4-3.6,1.4-4.9,0c-0.7-0.7-1-1.6-1-2.5c0-0.9,0.3-1.8,1-2.5l6.2-6.2L23.5,27c-0.7-0.7-1-1.6-1-2.5s0.3-1.8,1-2.5
		c1.4-1.4,3.6-1.4,5,0l6.2,6.2l6.2-6.2c1.4-1.4,3.6-1.4,4.9,0c0.7,0.7,1,1.6,1,2.5c0,0.9-0.3,1.8-1,2.5l-6.2,6.2L45.8,39.4z"/>
	<path fill="#01649B" d="M79.6,74.9C79.6,74.9,79.6,74.9,79.6,74.9L79.6,74.9L60,54.5c11.8-14,9.9-35-4.1-46.7S21-2.1,9.2,11.9
		c-11.8,14-9.9,35,4.1,46.7c6,5,13.5,7.8,21.3,7.8c6.8,0,13.4-2.1,19-6l19.7,20.5c1.6,1.7,4.4,1.8,6.1,0.2
		C81.2,79.4,81.3,76.7,79.6,74.9z M34.6,57.7c-13.5,0-24.5-11-24.5-24.5c0-13.5,11-24.5,24.5-24.5c13.5,0,24.5,11,24.5,24.5
		C59.1,46.7,48.2,57.7,34.6,57.7z"/>
	<path fill="#01649B" d="M46.8,24.5c0-0.9-0.3-1.8-1-2.5c-1.4-1.4-3.6-1.4-4.9,0l-6.2,6.2L28.4,22c-1.4-1.4-3.6-1.4-5,0
		c-0.7,0.7-1,1.6-1,2.5s0.3,1.8,1,2.5l6.2,6.2l-6.2,6.2c-0.7,0.7-1,1.6-1,2.5c0,0.9,0.3,1.8,1,2.5c1.4,1.4,3.6,1.4,4.9,0l6.2-6.2
		l6.2,6.2c0.7,0.7,1.6,1,2.5,1s1.8-0.3,2.5-1c0.7-0.7,1-1.6,1-2.5c0-0.9-0.3-1.8-1-2.5l-6.2-6.2l6.2-6.2
		C46.5,26.3,46.8,25.4,46.8,24.5z"/>
</g>
</svg>
