<?xml version="1.0" encoding="utf-8"?>
<!-- Generator: Adobe Illustrator 23.0.0, SVG Export Plug-In . SVG Version: 6.00 Build 0)  -->
<svg version="1.1" id="Vrstva_1" xmlns="http://www.w3.org/2000/svg" xmlns:xlink="http://www.w3.org/1999/xlink" x="0px" y="0px"
	 viewBox="0 0 85.04 85.04" style="enable-background:new 0 0 85.04 85.04;" xml:space="preserve">
<style type="text/css">
	.st0{fill:none;}
	.st1{fill:#020202;}
</style>
<path class="st0" fill="none" d="M53.43,50.96c0.5,1.77,0.79,3.62,0.8,5.53c0,0.02,0,0.03,0,0.05c-0.02,6.8-3.37,12.91-8.7,17.21
	c3.6,1.96,7.84,3.11,12.4,3.11c12.9,0,23.36-9.08,23.36-20.27c0-0.02,0-0.03,0-0.05c0-8.08-5.47-15.03-13.36-18.27
	C65.21,43.97,59.98,48.55,53.43,50.96z"/>
<path class="st0" fill="none" d="M48.73,48.89c-1.38-2.91-3.52-5.48-6.21-7.52c-2.64,2.02-4.77,4.53-6.15,7.38c2.06,0.52,4.24,0.81,6.49,0.81
	C44.89,49.55,46.85,49.31,48.73,48.89z"/>
<path class="st0" fill="none" d="M50.48,56.62c0-0.03,0-0.06,0-0.09c0-1.56-0.23-3.08-0.62-4.54c-2.23,0.52-4.57,0.82-6.99,0.82c0,0,0,0,0,0
	c-2.66,0-5.21-0.35-7.64-0.96c-0.42,1.52-0.67,3.1-0.67,4.73c0,6.07,3.09,11.5,7.96,15.21C47.37,68.08,50.46,62.67,50.48,56.62z"/>
<path class="st0" fill="none" d="M64.42,37.11c-2.05-0.51-4.21-0.8-6.45-0.8c-0.02,0-0.04,0-0.05,0c-4.52,0-8.73,1.13-12.31,3.06
	c2.89,2.34,5.18,5.22,6.67,8.46C57.75,45.73,62.12,41.89,64.42,37.11z"/>
<path class="st0" fill="none" d="M27.17,36.3c-2.05,0-4.02,0.24-5.91,0.67c2.21,4.67,6.37,8.45,11.6,10.61c1.49-3.14,3.75-5.93,6.56-8.21
	C35.86,37.45,31.67,36.31,27.17,36.3z"/>
<path class="st0" fill="none" d="M27.06,76.85c4.57,0.01,8.82-1.14,12.43-3.1c-5.33-4.3-8.68-10.41-8.68-17.22c0-2.02,0.32-3.96,0.87-5.83
	c-6.34-2.5-11.37-7.04-13.97-12.67c-8.2,3.13-13.94,10.23-13.96,18.5C3.72,67.72,14.16,76.82,27.06,76.85z"/>
<path class="st0" fill="none" d="M42.52,37.18C46.89,34.55,52.2,33,57.93,33c2.66,0,5.22,0.35,7.65,0.97c0.41-1.51,0.65-3.07,0.65-4.69
	c0-11.2-10.46-20.27-23.36-20.27c-12.9,0-23.36,9.08-23.36,20.27c0,1.56,0.22,3.08,0.61,4.54c2.22-0.51,4.54-0.82,6.95-0.82
	C32.81,32.99,38.13,34.54,42.52,37.18z"/>
<path d="M0,56.58c0.03,12.99,12.19,23.5,27.17,23.48c5.7-0.02,10.98-1.57,15.34-4.19c4.38,2.63,9.69,4.19,15.42,4.19
	c0,0,0,0,0,0c14.97,0,27.11-10.53,27.11-23.53c0-9.53-6.54-17.72-15.93-21.41c0.55-1.87,0.87-3.81,0.87-5.83
	c0-12.99-12.14-23.53-27.11-23.53c-14.97,0-27.11,10.53-27.11,23.53c0,1.92,0.3,3.78,0.8,5.57C6.81,38.44-0.02,46.82,0,56.58z
	 M81.29,56.53c0,0.02,0,0.03,0,0.05c0,11.2-10.46,20.27-23.36,20.27c-4.56,0-8.8-1.15-12.4-3.11c5.33-4.29,8.68-10.4,8.7-17.21
	c0-0.02,0-0.03,0-0.05c0-1.91-0.3-3.75-0.8-5.53c6.55-2.41,11.78-6.99,14.5-12.7C75.82,41.5,81.29,48.45,81.29,56.53z M34.56,56.58
	c0-1.63,0.25-3.21,0.67-4.73c2.43,0.62,4.98,0.96,7.64,0.96c0,0,0,0,0,0c2.42,0,4.75-0.3,6.99-0.82c0.39,1.46,0.62,2.97,0.62,4.54
	c0,0.03,0,0.06,0,0.09c-0.02,6.05-3.1,11.46-7.96,15.17C37.65,68.07,34.56,62.64,34.56,56.58z M42.52,41.36
	c2.68,2.05,4.83,4.61,6.21,7.52c-1.88,0.42-3.83,0.67-5.86,0.67c-2.26,0-4.43-0.29-6.49-0.81C37.75,45.89,39.88,43.38,42.52,41.36z
	 M32.86,47.58c-5.23-2.16-9.39-5.94-11.6-10.61c1.89-0.42,3.87-0.67,5.91-0.67c4.5,0.01,8.69,1.14,12.25,3.06
	C36.61,41.65,34.35,44.44,32.86,47.58z M45.62,39.37c3.58-1.93,7.78-3.06,12.31-3.06c0.02,0,0.04,0,0.05,0c2.24,0,4.4,0.29,6.45,0.8
	c-2.31,4.79-6.68,8.63-12.14,10.72C50.8,44.59,48.51,41.71,45.62,39.37z M19.5,29.28c0-11.2,10.46-20.27,23.36-20.27
	c12.9,0,23.36,9.08,23.36,20.27c0,1.62-0.24,3.18-0.65,4.69C63.15,33.35,60.59,33,57.93,33c-5.73,0-11.03,1.55-15.41,4.18
	c-4.39-2.64-9.71-4.19-15.46-4.18c-2.41,0-4.73,0.31-6.95,0.82C19.73,32.36,19.5,30.85,19.5,29.28z M17.71,38.03
	c2.6,5.63,7.63,10.17,13.97,12.67c-0.55,1.87-0.87,3.81-0.87,5.83c0,6.81,3.35,12.92,8.68,17.22c-3.61,1.96-7.86,3.11-12.43,3.1
	c-12.9-0.03-23.34-9.12-23.31-20.32C3.77,48.26,9.51,41.16,17.71,38.03z"/>
</svg>
