<?xml version="1.0" encoding="utf-8"?>
<!-- Generator: Adobe Illustrator 23.0.0, SVG Export Plug-In . SVG Version: 6.00 Build 0)  -->
<svg version="1.1" id="Vrstva_1" xmlns="http://www.w3.org/2000/svg" xmlns:xlink="http://www.w3.org/1999/xlink" x="0px" y="0px"
	 viewBox="0 0 85.04 85.04" style="enable-background:new 0 0 85.04 85.04;" xml:space="preserve">
<style type="text/css">
	.st0{fill:none;}
	.st1{fill:#020202;}
</style>
<path class="st0" fill="none" d="M33.3,13.71c-1.52,1.77-2.33,3.92-2.29,6.12c0,2.1,0.78,4.15,2.24,5.83c0.39,0.55,0.39,1.24,0,1.79
	c-0.33,0.6-1.02,0.98-1.78,1l-24.92,0.1c-1.4,0-2.53,0.98-2.53,2.19v36.77c0,1.21,1.13,2.19,2.53,2.19H78.2
	c1.4,0,2.53-0.98,2.53-2.19v-6.28c-1.27,0.3-2.59,0.45-3.9,0.45c-8.55-0.45-15.05-6.83-14.53-14.24c0.48-6.78,6.71-12.2,14.53-12.61
	c1.32-0.01,2.64,0.16,3.9,0.5v-4.68c0-1.21-1.13-2.19-2.53-2.19H53.46c-0.76-0.01-1.45-0.4-1.78-1c-0.39-0.55-0.39-1.24,0-1.79
	c3.8-4.4,2.77-10.65-2.3-13.95C44.3,8.42,37.1,9.31,33.3,13.71z"/>
<path d="M26.93,20.19c0.02,1.71,0.43,3.41,1.21,4.98H6.55C2.93,25.17,0,27.71,0,30.85v36.87c0,3.14,2.93,5.68,6.55,5.68
	H78.2c0.18,0.01,0.35,0.01,0.53,0c3.61-0.11,6.44-2.75,6.31-5.88V59c0-0.59-0.34-1.13-0.92-1.44c-0.6-0.32-1.36-0.32-1.95,0
	c-1.11,0.4-2.28,0.65-3.48,0.73c-6.32,0.45-11.86-3.64-12.38-9.12c-0.51-5.48,4.2-10.29,10.52-10.74c1.76,0,3.5,0.38,5.05,1.1
	c0.61,0.27,1.34,0.27,1.95,0c0.57-0.34,0.91-0.9,0.92-1.49v-7.17c0-3.14-2.93-5.68-6.55-5.68H56.67c0.77-1.58,1.18-3.27,1.21-4.98
	C57.4,13.4,51.17,7.99,43.35,7.58C34.8,7.13,27.45,12.77,26.93,20.19z M51.68,25.67c-0.39,0.55-0.39,1.24,0,1.79
	c0.33,0.6,1.02,0.98,1.78,1H78.2c1.4,0,2.53,0.98,2.53,2.19v4.68c-1.26-0.34-2.58-0.51-3.9-0.5C69,35.25,62.77,40.66,62.29,47.44
	c-0.52,7.42,5.99,13.79,14.53,14.24c1.32,0,2.63-0.15,3.9-0.45v6.28c0,1.21-1.13,2.19-2.53,2.19H6.55c-1.4,0-2.53-0.98-2.53-2.19
	V30.75c0-1.21,1.13-2.19,2.53-2.19l24.92-0.1c0.76-0.01,1.45-0.4,1.78-1c0.39-0.55,0.39-1.24,0-1.79c-1.46-1.68-2.24-3.73-2.24-5.83
	c-0.04-2.21,0.77-4.36,2.29-6.12c3.8-4.4,11-5.3,16.08-2C54.45,15.02,55.48,21.26,51.68,25.67z"/>
</svg>
