<?xml version="1.0" encoding="utf-8"?>
<!-- Generator: Adobe Illustrator 23.0.0, SVG Export Plug-In . SVG Version: 6.00 Build 0)  -->
<svg version="1.1" id="Vrstva_1" xmlns="http://www.w3.org/2000/svg" xmlns:xlink="http://www.w3.org/1999/xlink" x="0px" y="0px"
	 viewBox="0 0 30 30" style="enable-background:new 0 0 30 30;" xml:space="preserve">
<style type="text/css">
	.st0{fill:#01649B;}
</style>
<g id="share" transform="translate(-9.801)">
	<path id="Path_399" class="st0" d="M33.5,19.2c-1.6,0-3.2,0.8-4.2,2.1l-8.2-4.6c0.2-0.6,0.3-1.2,0.3-1.8c0-0.6-0.1-1.2-0.3-1.8
		l8.2-4.6c1.8,2.3,5.1,2.7,7.4,1c2.3-1.8,2.7-5.1,1-7.4s-5.1-2.7-7.4-1c-1.3,1-2.1,2.6-2.1,4.2c0,0.6,0.1,1.2,0.3,1.8l-8.1,4.6
		c-1.8-2.3-5.1-2.8-7.4-1c-2.3,1.8-2.8,5.1-1,7.4c1.8,2.3,5.1,2.8,7.4,1c0.4-0.3,0.7-0.6,1-1l8.2,4.6c-1,2.8,0.5,5.8,3.2,6.8
		c2.8,1,5.8-0.5,6.8-3.2c1-2.8-0.5-5.8-3.2-6.8C34.7,19.3,34.1,19.2,33.5,19.2L33.5,19.2z M33.5,1.8c2,0,3.6,1.6,3.6,3.6
		s-1.6,3.6-3.6,3.6c-2,0-3.6-1.6-3.6-3.6v0C29.8,3.5,31.5,1.8,33.5,1.8L33.5,1.8z M16.1,18.6c-2,0-3.7-1.6-3.7-3.6
		c0-2,1.6-3.7,3.6-3.7c2,0,3.7,1.6,3.7,3.6c0,0,0,0,0,0C19.8,17,18.1,18.6,16.1,18.6L16.1,18.6z M33.5,28.2c-2,0-3.6-1.6-3.6-3.6
		s1.6-3.6,3.6-3.6c2,0,3.6,1.6,3.6,3.6c0,0,0,0,0,0C37.1,26.6,35.5,28.2,33.5,28.2z"/>
</g>
</svg>
