<?xml version="1.0" encoding="utf-8"?>
<!-- Generator: Adobe Illustrator 23.0.0, SVG Export Plug-In . SVG Version: 6.00 Build 0)  -->
<svg version="1.1" id="Vrstva_1" xmlns="http://www.w3.org/2000/svg" xmlns:xlink="http://www.w3.org/1999/xlink" x="0px" y="0px"
	 viewBox="0 0 85.04 85.04" style="enable-background:new 0 0 85.04 85.04;" xml:space="preserve">
<style type="text/css">
	.st0{fill:none;}
	.st1{fill:#020202;}
</style>
<path class="st0" fill="none" d="M44.36,9.08v6.42c8.26,0.46,16.37,1.38,24.47,2.75C62.4,12.91,53.84,9.54,44.36,9.08z"/>
<path class="st0" fill="none" d="M40.53,15.35V9.08c-9.94,0.46-18.97,4.13-25.54,9.94C23.25,16.88,31.81,15.66,40.53,15.35z"/>
<path class="st0" fill="none" d="M44.36,69.35v6.73c10.55-0.46,19.88-4.59,26.61-10.86C62.4,67.51,53.38,68.89,44.36,69.35z"/>
<path class="st0" fill="none" d="M69.74,46.71L60.11,35.7L45.43,48.54l5.05,5.66c0.61,0.76,0.31,1.84-0.46,2.29c-0.76,0.46-1.84,0.31-2.6-0.31
	l-9.64-10.86L22.33,58.79c-2.91,1.84-6.27,2.91-9.79,3.36c9.64,1.84,19.58,3.06,29.52,3.52c0.15,0,0.31,0,0.46,0
	c0.31,0,0.61,0,0.76,0.15l0,0c10.71-0.46,21.41-2.29,31.51-5.35c0.15,0,0.15,0,0.31-0.15c1.84-2.6,3.36-5.51,4.44-8.57
	C75.71,51.45,72.04,49.61,69.74,46.71z"/>
<path class="st0" fill="none" d="M27.07,36.61c2.29,0,4.13-1.68,4.13-3.67s-1.84-3.67-4.13-3.67s-4.13,1.68-4.13,3.67
	C22.79,35.08,24.78,36.61,27.07,36.61z"/>
<path class="st0" fill="none" d="M19.58,56.34L36.4,41.81c0.46-0.31,0.92-0.46,1.53-0.46c0.61,0,1.07,0.31,1.53,0.61l3.67,4.13l15.75-13.61
	c0.46-0.31,0.92-0.46,1.53-0.46s1.07,0.31,1.38,0.61l11.17,12.39c1.84,2.14,4.59,3.52,7.65,3.82c0.46-1.99,0.61-3.98,0.61-6.12
	c0-7.49-2.91-14.53-7.8-20.19c-10.55-1.99-21.11-3.36-31.97-3.82h-0.76c-10.4,0.46-20.65,2.29-30.44,5.35
	c-4.13,5.35-6.58,11.78-6.58,18.66c0,5.97,1.84,11.62,4.89,16.52C12.54,59.1,16.37,58.18,19.58,56.34z M27.07,25.91
	c4.44,0,8.11,3.21,8.11,7.04s-3.67,7.04-8.11,7.04s-8.11-3.21-8.11-7.04C18.97,29.12,22.64,25.91,27.07,25.91z"/>
<path class="st0" fill="none" d="M40.53,69.19c-8.57-0.46-16.98-1.38-25.39-2.91c6.58,5.66,15.45,9.33,25.39,9.79V69.19z"/>
<path d="M76.63,20.55c-0.15-0.46-0.46-0.76-0.92-1.07C68.06,11.22,56.44,5.87,43.28,5.57
	c-0.31-0.15-0.46-0.15-0.76-0.15s-0.61,0-0.76,0.15c-13.92,0.15-26.31,6.27-33.8,15.45c-0.46,0.31-0.76,0.61-0.92,1.07
	C2.6,27.9,0,34.93,0,42.43c0,20.34,19.12,36.86,42.52,36.86c20.04,0,36.86-12.08,41.45-28.45c0.15-0.15,0.15-0.46,0.15-0.61
	c0,0,0,0,0-0.15c0.61-2.45,0.92-5.05,0.92-7.8C85.04,34.32,81.83,26.67,76.63,20.55z M44.36,9.08c9.48,0.46,18.05,3.82,24.47,9.02
	c-8.11-1.38-16.21-2.29-24.47-2.75V9.08z M40.53,9.08v6.27c-8.72,0.31-17.28,1.53-25.54,3.67C21.57,13.21,30.59,9.54,40.53,9.08z
	 M10.4,23.92c9.79-3.06,20.04-4.89,30.44-5.35h0.76c10.71,0.46,21.41,1.84,31.97,3.82c4.89,5.66,7.8,12.54,7.8,20.19
	c0,2.14-0.15,4.13-0.61,6.12c-3.06-0.31-5.81-1.68-7.65-3.82L61.94,32.48c-0.31-0.46-0.92-0.61-1.38-0.61
	c-0.61,0-1.07,0.15-1.53,0.46L43.28,45.94l-3.67-4.13c-0.31-0.46-0.92-0.61-1.53-0.61c-0.61,0-1.07,0.15-1.53,0.46L19.73,56.19
	c-3.21,1.84-6.88,2.75-10.71,2.75c-3.21-4.89-4.89-10.4-4.89-16.52C3.82,35.7,6.27,29.27,10.4,23.92z M75.1,60.47
	c-0.15,0-0.15,0-0.31,0.15c-10.09,3.21-20.8,5.05-31.51,5.35l0,0c-0.31-0.15-0.46-0.15-0.76-0.15c-0.15,0-0.31,0-0.46,0
	c-9.94-0.46-19.73-1.68-29.52-3.52c3.52-0.46,6.88-1.53,9.79-3.36l15.45-13.46l9.64,10.86c0.61,0.61,1.68,0.76,2.6,0.31
	c0.92-0.46,1.07-1.53,0.46-2.29l-5.05-5.66l14.68-12.85l9.64,11.01c2.45,2.75,5.96,4.59,9.79,5.2
	C78.62,54.97,77.09,57.87,75.1,60.47z M15.14,66.29c8.41,1.53,16.82,2.45,25.39,2.91v6.88C30.59,75.62,21.72,71.95,15.14,66.29z
	 M44.36,76.08v-6.73c9.02-0.31,17.89-1.84,26.61-4.13C64.24,71.49,54.91,75.62,44.36,76.08z"/>
<path d="M27.07,40.13c4.44,0,8.11-3.21,8.11-7.04s-3.67-7.04-8.11-7.04s-8.11,3.21-8.11,7.04
	C18.97,36.92,22.64,40.13,27.07,40.13z M27.07,29.43c2.29,0,4.13,1.68,4.13,3.67c0,1.99-1.84,3.67-4.13,3.67s-4.13-1.68-4.13-3.67
	C22.79,30.96,24.78,29.43,27.07,29.43z"/>
</svg>
