<?xml version="1.0" encoding="utf-8"?>
<!-- Generator: Adobe Illustrator 23.0.0, SVG Export Plug-In . SVG Version: 6.00 Build 0)  -->
<svg version="1.1" id="Vrstva_1" xmlns="http://www.w3.org/2000/svg" xmlns:xlink="http://www.w3.org/1999/xlink" x="0px" y="0px"
	 viewBox="0 0 20 20" style="enable-background:new 0 0 20 20;" xml:space="preserve">
<title>user - anticon</title>
<desc>Created with Sketch.</desc>
<g id="navigation-logged-in" transform="translate(-1195.000000, -41.000000)">
	<g id="Group-7">
		<path id="user---anticon" d="M1212,57.2c0.4,0.9,0.6,1.9,0.6,2.9c0,0.2-0.1,0.4-0.2,0.6c-0.1,0.1-0.4,0.2-0.6,0.2
			s-0.4-0.1-0.6-0.2c-0.1-0.1-0.2-0.4-0.2-0.6c0-1.6-0.6-3-1.7-4.1c-1.1-1.1-2.5-1.7-4.1-1.7s-3,0.6-4.1,1.7s-1.7,2.5-1.7,4.1
			c0,0.2-0.1,0.4-0.2,0.6c-0.1,0.1-0.4,0.2-0.6,0.2s-0.4-0.1-0.6-0.2c-0.1-0.1-0.2-0.4-0.2-0.6c0-1,0.2-2,0.6-2.9
			c0.4-0.9,0.9-1.6,1.6-2.4c0.7-0.7,1.5-1.2,2.4-1.6c0.2-0.1,0.6-0.2,1-0.4c-0.9-0.2-1.7-0.7-2.4-1.5c-1.2-1.2-1.7-2.6-1.7-4.3
			s0.6-3.1,1.7-4.3c1.1-1.2,2.6-1.7,4.3-1.7s3.1,0.6,4.3,1.7c1.2,1.2,1.7,2.6,1.7,4.3s-0.6,3.1-1.7,4.3c-0.6,0.6-1.5,1.1-2.4,1.5
			c0.4,0.1,0.6,0.2,1,0.4c0.9,0.4,1.6,0.9,2.4,1.6C1211.1,55.6,1211.6,56.4,1212,57.2z M1201.9,50.5c0.9,0.9,2,1.4,3.2,1.4
			c1.2,0,2.4-0.5,3.2-1.4c0.9-0.9,1.4-2,1.4-3.2s-0.5-2.4-1.4-3.2s-2-1.4-3.2-1.4c-1.2,0-2.4,0.5-3.2,1.4c-0.9,0.9-1.4,2-1.4,3.2
			S1201,49.6,1201.9,50.5z"/>
	</g>
</g>
</svg>
