<?xml version="1.0" encoding="utf-8"?>
<!-- Generator: Adobe Illustrator 23.0.0, SVG Export Plug-In . SVG Version: 6.00 Build 0)  -->
<svg version="1.1" id="Vrstva_1" xmlns="http://www.w3.org/2000/svg" xmlns:xlink="http://www.w3.org/1999/xlink" x="0px" y="0px"
	 viewBox="0 0 20 20" style="enable-background:new 0 0 20 20;" xml:space="preserve">
<title>warning - material</title>
<desc>Created with Sketch.</desc>
<g id="Moje-projekty---detail-_x2F_-1.uroven" transform="translate(-121.000000, -259.000000)">
	<g id="Group-8">
		<g id="Group-11" transform="translate(40.000000, 207.000000)">
			<g transform="translate(80.000000, 0.000000)">
				<path id="warning---material" d="M11.9,64.3v-3.8h-1.8v3.8H11.9z M11.9,68.1v-1.9h-1.8v1.9H11.9z M1,70.8l10-17.8l10,17.8H1z"/>
			</g>
		</g>
	</g>
</g>
</svg>
