<?xml version="1.0" encoding="utf-8"?>
<!-- Generator: Adobe Illustrator 23.0.0, SVG Export Plug-In . SVG Version: 6.00 Build 0)  -->
<svg version="1.1" id="Vrstva_1" xmlns="http://www.w3.org/2000/svg" xmlns:xlink="http://www.w3.org/1999/xlink" x="0px" y="0px"
	 viewBox="0 0 85.04 85.04" style="enable-background:new 0 0 85.04 85.04;" xml:space="preserve">
<style type="text/css">
	.st0{fill:none;}
	.st1{fill:#020202;}
</style>
<path class="st0" fill="none" d="M81.77,44.57c-0.03-2.5-2.35-4.52-5.24-4.54c-2.89,0-5.24,2.03-5.24,4.54c0,2.51,2.34,4.54,5.24,4.54
	C79.42,49.11,81.77,47.08,81.77,44.57z"/>
<path class="st0" fill="none" d="M20.43,10.09c-2.87-0.02-5.21,1.94-5.31,4.41c0,0.04,0.03,0.08,0.03,0.13c0,0.05-0.03,0.09-0.03,0.14
	c0.06,2.47,2.36,4.46,5.22,4.49c2.92,0.02,5.3-2.01,5.33-4.54c0-0.03,0-0.05,0-0.08C25.64,12.13,23.31,10.11,20.43,10.09z"/>
<path class="st0" fill="none" d="M35.9,61.89c0.23,0.41,0.23,0.89,0,1.3l-6.22,10.34l21.97-10.99L29.69,51.55L35.9,61.89z"/>
<path d="M3.51,18.41c0-0.01,0-0.03,0-0.04C3.48,17.6,2.75,17,1.87,17.03c-0.91,0.02-1.64,0.67-1.64,1.46v8.11
	c0,0.78,0.73,1.42,1.64,1.42L1.64,28.1c0.07,0.01,0.14,0.01,0.2,0.01c0.9,0.01,1.65-0.61,1.67-1.39V18.41z"/>
<path d="M19.59,61.04h-9.35c-0.9,0-1.64,0.64-1.64,1.42c0,0.78,0.73,1.42,1.64,1.42h9.35c0.9,0,1.64-0.64,1.64-1.42
	C21.22,61.67,20.49,61.04,19.59,61.04z"/>
<path d="M3.51,35.08c0-0.03,0-0.06,0-0.08c-0.03-0.76-0.76-1.36-1.64-1.34c-0.9,0-1.64,0.64-1.64,1.42v8.11
	c0,0.78,0.73,1.42,1.64,1.42l-0.23,0.08c0.15,0.02,0.3,0.03,0.46,0.02c0.87-0.08,1.51-0.76,1.41-1.52V35.08z"/>
<path d="M1.87,61.2l0.33,0.12c0,0,0.01,0,0.01,0c0.86-0.24,1.34-1.03,1.07-1.78c-0.05-0.23-0.05-0.46,0-0.69v-7.14
	c0-0.78-0.73-1.42-1.64-1.42S0,50.92,0,51.71v6.94c0,0.54,0.1,1.07,0.28,1.58C0.53,60.8,1.16,61.19,1.87,61.2z"/>
<path d="M72.14,63.88c3.33,0,6.03-2.34,6.03-5.23v-6.83c3.92-0.66,6.87-3.65,6.87-7.24c0-3.59-2.96-6.58-6.87-7.24v-19
	c0-2.89-2.7-5.23-6.03-5.23H28.75c-0.82-3.34-4.23-5.84-8.32-5.84c-4.14,0-7.58,2.57-8.35,5.96H8.84c-0.9,0-1.64,0.64-1.64,1.42
	c0,0.78,0.73,1.42,1.64,1.42h3.25c0.76,3.4,4.21,5.96,8.35,5.96c4.19,0,7.66-2.63,8.37-6.08h43.34c1.51,0.02,2.73,1.08,2.76,2.39v19
	c-3.92,0.66-6.87,3.65-6.87,7.24c0,3.59,2.96,6.58,6.87,7.24v6.83c-0.02,1.31-1.25,2.37-2.76,2.39h-17.2
	c-0.05,0-0.09,0.02-0.13,0.02L26.46,46.84c-0.59-0.37-1.38-0.37-1.96,0c-0.51,0.45-0.64,1.13-0.33,1.7l7.55,12.49h-2.55
	c-0.9,0-1.64,0.64-1.64,1.42c0,0.78,0.73,1.42,1.64,1.42h2.65l-7.65,12.7c-0.32,0.56-0.19,1.23,0.33,1.66
	c0.31,0.24,0.71,0.39,1.12,0.41c0.28,0.05,0.56,0.05,0.84,0l29.27-14.68c0.05-0.02,0.08-0.06,0.13-0.08H72.14L72.14,63.88z
	 M25.67,14.71c-0.03,2.53-2.41,4.57-5.33,4.54c-2.86-0.02-5.16-2.02-5.22-4.49c0.01-0.05,0.03-0.09,0.03-0.14
	c0-0.05-0.03-0.08-0.03-0.13c0.11-2.47,2.45-4.44,5.31-4.41c2.88,0.02,5.21,2.04,5.24,4.54C25.67,14.66,25.67,14.69,25.67,14.71z
	 M71.29,44.57c0-2.51,2.34-4.54,5.24-4.54c2.88,0.02,5.21,2.04,5.24,4.54c0,2.51-2.34,4.54-5.24,4.54
	C73.64,49.11,71.29,47.08,71.29,44.57z M29.69,73.53l6.22-10.34c0.23-0.41,0.23-0.89,0-1.3l-6.22-10.34l21.97,10.99L29.69,73.53z"/>
</svg>
